autostart = False
version = 0.8.2
[127.0.0.1:7200]
    workingdir = C:\Users\ActionMystique\Documents\Missions\GNS3\Temp
    udp = 10000
    [[3725]]
        image = C:\Users\ActionMystique\Documents\Missions\IOS\Binaries\c3725-adventerprisek9-mz.124-15.T5.image
        ram = 128
        idlepc = 0x62af9f1c
        sparsemem = True
        ghostios = True
    [[ETHSW SW1]]
        1 = access 1 R1 f0/0
        2 = access 1 R2 f0/0
        3 = access 1 R3 f0/0
        x = -103.5
        y = -16.0
        z = 1.0
    [[ROUTER R1]]
        model = 3725
        console = 2000
        aux = 2100
        cnfg = configs\R1.cfg
        wic0/0 = WIC-2T
        s0/0 = R2 s0/0
        f0/0 = SW1 1
        slot1 = NM-1FE-TX
        slot2 = NM-1FE-TX
        x = -348.0
        y = 80.0
        z = 1.0
    [[ROUTER R2]]
        model = 3725
        console = 2001
        aux = 2101
        cnfg = configs\R2.cfg
        wic0/0 = WIC-2T
        s0/0 = R1 s0/0
        f0/0 = SW1 2
        slot1 = NM-1FE-TX
        slot2 = NM-1FE-TX
        x = -100.0
        y = -247.0
        z = 1.0
    [[ROUTER R3]]
        model = 3725
        console = 2002
        aux = 2102
        cnfg = configs\R3.cfg
        wic0/0 = WIC-2T
        f0/0 = SW1 3
        slot1 = NM-1FE-TX
        slot2 = NM-1FE-TX
        x = 87.0
        y = 100.0
        z = 1.0
[GNS3-DATA]
    configs = configs
    [[NOTE 1]]
        text = VLAN1\n10.1.100.0/24
        x = -42.0
        y = -65.5
    [[NOTE 2]]
        text = fa0/0\n.3
        x = 27.0
        y = 84.5
    [[NOTE 3]]
        text = Lo3: 10.1.3.1/24\nAccounting
        x = 110.0
        y = 176.5
    [[NOTE 4]]
        text = Lo2: 10.1.2.1/24\nMarketing
        x = 0.0
        y = -259.5
    [[NOTE 5]]
        text = Lo1: 10.1.1.1/24\nEngineering
        x = -373.0
        y = 153.5
    [[NOTE 6]]
        text = s0/0\nDCE\n.1
        x = -317.0
        y = -1.5
    [[NOTE 7]]
        text = s0/0\n.2
        x = -142.0
        y = -214.5
    [[NOTE 8]]
        text = Lo15: 192.168.100.5/30
        x = 196.0
        y = 105.5
    [[NOTE 9]]
        text = Lo11: 192.168.100.1/30
        x = 113.0
        y = 38.5
    [[NOTE 10]]
        text = 10.1.200.0/24
        x = -320.0
        y = -87.5
    [[NOTE 11]]
        text = fa0/0\n.2
        x = -61.0
        y = -196.5
    [[NOTE 12]]
        text = fa0/0\n.1
        x = -271.0
        y = 86.5
    [[SHAPE 1]]
        type = ellipse
        x = -309.0
        y = 120.0
        width = 31.0
        height = 16.0
        rotate = 90
        border_style = 2
        z = -2.0
    [[SHAPE 2]]
        type = ellipse
        x = 141.0
        y = 74.0
        width = 31.0
        height = 16.0
        rotate = 90
        border_style = 2
        z = -2.0
    [[SHAPE 3]]
        type = ellipse
        x = 151.0
        y = 111.0
        width = 31.0
        height = 16.0
        border_style = 2
        z = -2.0
    [[SHAPE 4]]
        type = ellipse
        x = 140.0
        y = 139.0
        width = 31.0
        height = 16.0
        rotate = 90
        border_style = 2
        z = -2.0
    [[SHAPE 5]]
        type = ellipse
        x = -39.0
        y = -244.0
        width = 31.0
        height = 16.0
        border_style = 2
        z = -2.0
