Apr 10 15:30:18.994 HYPERVISOR: Release 0.2.14-amd64/Linux (tag 2014092320)
Apr 10 15:30:18.994 HYPERVISOR: Started on IP = 127.0.0.1, TCP port = 7206.
Apr 10 15:30:19.000 HYPERVISOR: exec_cmd: hypervisor version 
Apr 10 15:30:19.001 HYPERVISOR: exec_cmd: hypervisor uuid 
Apr 10 15:30:19.001 HYPERVISOR: exec_cmd: hypervisor working_dir /home/actionmystique/Google Drive/Missions/Certifications/Cisco/Labs/GNS3/CCNP-Security/FIREWALL/Jean-Christophe/1+/Data Center ASA - ASDM - AAA - VMs-linux/Data Center ASA - ASDM - AAA - VMs-linux-files/dynamips 
Apr 10 15:30:19.001 GENERAL: working_dir=/home/actionmystique/Google Drive/Missions/Certifications/Cisco/Labs/GNS3/CCNP-Security/FIREWALL/Jean-Christophe/1+/Data Center ASA - ASDM - AAA - VMs-linux/Data Center ASA - ASDM - AAA - VMs-linux-files/dynamips
Apr 10 15:30:19.001 HYPERVISOR: exec_cmd: vm create SW7 7 c3725 
Apr 10 15:30:19.001 VM: VM SW7 created.
Apr 10 15:30:19.001 HYPERVISOR: exec_cmd: vm set_con_tcp_port SW7 2007 
Apr 10 15:30:19.001 HYPERVISOR: exec_cmd: vm set_aux_tcp_port SW7 2507 
Apr 10 15:30:19.002 HYPERVISOR: exec_cmd: c3725 get_mac_addr SW7 
Apr 10 15:30:19.002 HYPERVISOR: exec_cmd: vm set_ios SW7 /media/actionmystique/SAMSUNG-Ext4/Images/GNS3/IOS/c3725-adventerprisek9-mz.124-15.T10.image 
Apr 10 15:30:19.002 HYPERVISOR: exec_cmd: vm set_sparse_mem SW7 1 
Apr 10 15:30:19.002 HYPERVISOR: exec_cmd: vm set_ram_mmap SW7 1 
Apr 10 15:30:19.002 HYPERVISOR: exec_cmd: c3725 set_mac_addr SW7 c207.1340.0000 
Apr 10 15:30:19.002 HYPERVISOR: exec_cmd: vm set_ghost_status SW7 2 
Apr 10 15:30:19.003 HYPERVISOR: exec_cmd: vm set_ghost_file SW7 c3725-adventerprisek9-mz.124-15.T10.image-128.ghost 
