autostart = False
version = 0.8.3
[127.0.0.1:7200]
    workingdir = C:\Users\ActionMystique\Documents\Missions\GNS3\Temp
    udp = 10000
    [[3640]]
        image = C:\Users\ActionMystique\Documents\Missions\IOS\Binaries\c3640-jk9o3s-mz.124-16a.bin
        ram = 192
        idlepc = 0x6050a078
        sparsemem = True
        ghostios = True
        chassis = 3640
    [[ROUTER Quartz]]
        model = 3640
        console = 2011
        aux = 2103
        cnfg = configs\Quartz.cfg
        slot0 = NM-1FE-TX
        f0/0 = Diamond f1/0
        slot1 = NM-1FE-TX
        f1/0 = Fluorite f0/0
        x = -191.391918986
        y = -92.0035713376
        z = 1.0
        hx = 61.7756492762
        hy = -8.02943725149
    [[ROUTER Topaz]]
        model = 3640
        console = 2009
        aux = 2102
        cnfg = configs\Topaz.cfg
        slot0 = NM-1FE-TX
        f0/0 = Talc f0/0
        slot1 = NM-1FE-TX
        f1/0 = Diamond f0/0
        x = -435.343758496
        y = -89.8822509941
        z = 1.0
        hx = -46.4472221515
        hy = -5.90811690792
    [[ROUTER Diamond]]
        model = 3640
        console = 2008
        aux = 2100
        cnfg = configs\Diamond.cfg
        slot0 = NM-1FE-TX
        f0/0 = Topaz f1/0
        slot1 = NM-1FE-TX
        f1/0 = Quartz f0/0
        x = -318.6711396
        y = -222.111219076
        z = 1.0
        hx = -6.32842712475
        hy = -20.0502525317
    [[ROUTER Fluorite]]
        model = 3640
        console = 2016
        aux = 2101
        cnfg = configs\Fluorite.cfg
        slot0 = NM-1FE-TX
        f0/0 = Quartz f1/0
        x = -138.358910397
        y = 47.2964645564
        z = 1.0
        hx = 4.74264068713
        hy = 37.9325035257
    [[ROUTER Talc]]
        model = 3640
        console = 2010
        aux = 2104
        cnfg = configs\Talc.cfg
        slot0 = NM-1FE-TX
        f0/0 = Topaz f0/0
        x = -490.498087429
        y = 56.4888527119
        z = 1.0
        hx = 16.4142135624
        hy = 38.6396103069
[GNS3-DATA]
    configs = configs
    m11 = 0.999999999998
    m22 = 0.999999999998
    [[NOTE 1]]
        text = "192.168.14.0 /24"
        x = -282.842712475
        y = -152.915259583
        color = "#0000ff"
    [[NOTE 2]]
        text = "192.168.45.0 /24"
        x = -190.21172414
        y = -3.20963209802
        color = "#0000ff"
    [[NOTE 3]]
        text = ".1"
        x = -311.834090504
        y = -185.643181645
        color = "#0000ff"
    [[NOTE 4]]
        text = ".2"
        x = -436.991990774
        y = -52.6030303802
        color = "#0000ff"
    [[NOTE 5]]
        text = ".3"
        x = -472.347329834
        y = 36.2914139228
        color = "#0000ff"
    [[NOTE 6]]
        text = ".1"
        x = -283.549819256
        y = -185.844191771
        color = "#0000ff"
    [[NOTE 7]]
        text = ".2"
        x = -403.050865277
        y = -111.798989873
        color = "#0000ff"
    [[NOTE 8]]
        text = ".5"
        x = -109.601551084
        y = 25.0817818247
        color = "#0000ff"
    [[NOTE 9]]
        text = ".4"
        x = -181.726442765
        y = -109.573593129
        color = "#0000ff"
    [[NOTE 10]]
        text = ".4"
        x = -147.785317268
        y = -57.4487014475
        color = "#0000ff"
    [[NOTE 11]]
        text = "AREA 0"
        x = -193.747258046
        y = -182.412734266
        color = "#323232"
    [[NOTE 12]]
        text = "AREA 2"
        x = -200.818325857
        y = 50.0243866178
        color = "#323232"
    [[NOTE 13]]
        text = "AREA 1"
        x = -414.364573776
        y = 51.9446968346
        color = "#323232"
    [[NOTE 14]]
        text = "192.168.12.0 /24"
        x = -439.113311118
        y = -152.714249456
        color = "#0000ff"
    [[NOTE 15]]
        text = "192.168.23.0 /24"
        x = -499.9244943
        y = -0.887301627724
        color = "#0000ff"
    [[SHAPE 1]]
        type = ellipse
        x = -538.815367265
        y = -74.9533188059
        width = 200.0
        height = 200.0
        fill_color = "#ffff7f"
        border_style = 2
        z = -2.0
    [[SHAPE 2]]
        type = ellipse
        x = -465.276262022
        y = -244.353859763
        width = 360.111219076
        height = 200.0
        fill_color = "#aaff7f"
        border_style = 2
        z = -2.0
    [[SHAPE 3]]
        type = ellipse
        x = -220.111219076
        y = -78.6898628386
        width = 200.0
        height = 200.0
        fill_color = "#ffaa7f"
        border_style = 2
        z = -2.0
