autostart = False
version = 0.8.2
[127.0.0.1:7200]
    workingdir = C:\Users\ActionMystique\Documents\Missions\GNS3\Temp
    udp = 10000
    [[3725]]
        image = C:\Users\ActionMystique\Documents\Missions\IOS\Binaries\c3725-adventerprisek9-mz.124-15.T5.image
        ram = 128
        idlepc = 0x62af9f1c
        sparsemem = True
        ghostios = True
    [[ROUTER R4]]
        model = 3725
        console = 2013
        aux = 2132
        cnfg = configs\R4.cfg
        wic0/0 = WIC-2T
        wic0/1 = WIC-2T
        wic0/2 = WIC-2T
        s0/2 = R3 s0/2
        slot1 = NM-1FE-TX
        slot2 = NM-1FE-TX
        x = 192.0
        y = 136.0
        z = 1.0
        hx = 22.5
        hy = 40.0
    [[ROUTER R1]]
        model = 3725
        console = 2010
        aux = 2133
        cnfg = configs\R1.cfg
        wic0/0 = WIC-2T
        wic0/1 = WIC-2T
        wic0/2 = WIC-2T
        s0/0 = R2 s0/0
        slot1 = NM-1FE-TX
        slot2 = NM-1FE-TX
        x = -208.0
        y = 131.0
        z = 1.0
        hx = 20.5
        hy = 41.0
    [[ROUTER R2]]
        model = 3725
        console = 2011
        aux = 2134
        cnfg = configs\R2.cfg
        wic0/0 = WIC-2T
        wic0/1 = WIC-2T
        wic0/2 = WIC-2T
        s0/0 = R1 s0/0
        s0/1 = R3 s0/1
        slot1 = NM-1FE-TX
        slot2 = NM-1FE-TX
        x = -206.0
        y = -264.0
        z = 1.0
    [[ROUTER R3]]
        model = 3725
        console = 2012
        aux = 2135
        cnfg = configs\R3.cfg
        wic0/0 = WIC-2T
        wic0/1 = WIC-2T
        wic0/2 = WIC-2T
        s0/1 = R2 s0/1
        s0/2 = R4 s0/2
        slot1 = NM-1FE-TX
        slot2 = NM-1FE-TX
        x = 192.0
        y = -263.0
        z = 1.0
[GNS3-DATA]
    configs = configs
    width = 5000
    height = 2500
    [[NOTE 1]]
        text = OSPF\nArea 23\n172.16.23.0/24
        x = 5.0
        y = -332.5
    [[NOTE 2]]
        text = s0/1\nDCE\n.2
        x = -134.0
        y = -304.5
    [[NOTE 3]]
        text = OSPF\nArea 20\n\nLo0: 172.16.2.1/27\nLo1: 172.16.2.33/27\nLo2: 172.16.2.65/27\nLo3: 172.16.2.97/27
        x = -389.0
        y = -322.5
    [[NOTE 4]]
        text = s0/1\n.3
        x = 153.0
        y = -292.5
    [[NOTE 5]]
        text = lo0: 172.16.3.1/24
        x = 285.0
        y = -281.5
    [[NOTE 6]]
        text = s0/0\n.2
        x = -162.0
        y = -204.5
    [[NOTE 7]]
        text = lo0: 172.16.1.1/24
        x = -372.0
        y = 168.5
    [[NOTE 8]]
        text = s0/2\nDCE\n.3
        x = 184.0
        y = -202.5
    [[NOTE 9]]
        text = s0/0\nDCE\n.1
        x = -155.0
        y = 61.5
    [[NOTE 10]]
        text = OSPF\nArea 0\n172.16.12.0/24
        x = -241.0
        y = -53.5
    [[NOTE 11]]
        text = lo0: 172.16.4.1/24
        x = 284.0
        y = 170.5
    [[NOTE 12]]
        text = OSPF\nArea 34\n172.16.34.0/24
        x = 151.0
        y = -39.5
    [[NOTE 13]]
        text = s0/2\n.4
        x = 168.0
        y = 85.5
    [[SHAPE 1]]
        type = ellipse
        x = 244.0
        y = -270.0
        width = 31.0
        height = 19.0
        border_style = 2
        z = -2.0
    [[SHAPE 2]]
        type = ellipse
        x = -234.0
        y = 157.0
        width = 31.0
        height = 19.0
        border_style = 2
        z = -2.0
    [[SHAPE 3]]
        type = ellipse
        x = 253.0
        y = 159.0
        width = 31.0
        height = 19.0
        border_style = 2
        z = -2.0
    [[SHAPE 4]]
        type = ellipse
        x = -160.0
        y = -340.0
        width = 443.0
        height = 143.0
        border_style = 2
        z = -2.0
    [[SHAPE 5]]
        type = ellipse
        x = -426.0
        y = -357.0
        width = 236.0
        height = 200.0
        border_style = 2
        z = -2.0
    [[SHAPE 6]]
        type = ellipse
        x = -259.0
        y = -225.0
        width = 200.0
        height = 436.0
        border_style = 2
        z = -2.0
    [[SHAPE 7]]
        type = ellipse
        x = -234.0
        y = -262.0
        width = 31.0
        height = 19.0
        border_style = 2
        z = -2.0
    [[SHAPE 8]]
        type = ellipse
        x = 130.0
        y = -219.0
        width = 200.0
        height = 436.0
        border_style = 2
        z = -2.0
