autostart = False
version = 0.8.3
[127.0.0.1:7200]
    workingdir = C:\Users\ActionMystique\Documents\Missions\GNS3\Temp
    udp = 10000
    [[3640]]
        image = C:\Users\ActionMystique\Documents\Missions\IOS\Binaries\c3640-jk9o3s-mz.124-16a.bin
        ram = 192
        idlepc = 0x604d1c74
        sparsemem = True
        ghostios = True
        chassis = 3640
    [[ROUTER Maggie]]
        model = 3640
        console = 2003
        aux = 2100
        cnfg = configs\Maggie.cfg
        slot0 = NM-1FE-TX
        f0/0 = SW2 2
        x = 159.333044483
        y = -188.170093579
        z = 1.0
    [[ROUTER Homer]]
        model = 3640
        console = 2000
        aux = 2101
        cnfg = configs\Homer.cfg
        slot0 = NM-1FE-TX
        f0/0 = SW1 1
        slot1 = NM-1FE-TX
        f1/0 = SW2 1
        x = 0.607214462436
        y = -55.9289321881
        z = 1.0
    [[ROUTER Bart]]
        model = 3640
        console = 2002
        aux = 2104
        cnfg = configs\Bart.cfg
        slot0 = NM-1FE-TX
        f0/0 = SW1 3
        x = -146.844191771
        y = 78.4091629285
        z = 1.0
        hx = 18.0857864376
        hy = 43.5893577751
    [[ROUTER Marge]]
        model = 3640
        console = 2001
        aux = 2102
        cnfg = configs\Marge.cfg
        slot0 = NM-1FE-TX
        f0/0 = SW1 2
        x = -147.551298552
        y = -186.048773235
        z = 1.0
    [[ETHSW SW1]]
        1 = access 1 Homer f0/0
        2 = access 1 Marge f0/0
        3 = access 1 Bart f0/0
        x = -150.758405333
        y = -49.941125497
        z = 1.0
        hx = -37.3259018078
        hy = 3.28427124746
    [[ROUTER Lisa]]
        model = 3640
        console = 2004
        aux = 2103
        cnfg = configs\Lisa.cfg
        slot0 = NM-1FE-TX
        f0/0 = SW2 3
        x = 160.040151264
        y = 76.2878425849
        z = 1.0
        hx = 20.2071067812
        hy = 43.5893577751
    [[ETHSW SW2]]
        1 = access 1 Homer f1/0
        2 = access 1 Maggie f0/0
        3 = access 1 Lisa f0/0
        x = 156.125937702
        y = -49.2340187158
        z = 1.0
        hx = 67.8259018078
        hy = -0.958369439657
[GNS3-DATA]
    configs = configs
    m11 = 1.41421356237
    m22 = 1.41421356237
    [[NOTE 1]]
        text = "BDR"
        x = 125.15790027
        y = -178.066017178
        color = "#0000ff"
    [[NOTE 2]]
        text = "DR"
        x = 50.2045814644
        y = -15.2304473778
        color = "#0000ff"
    [[NOTE 3]]
        text = "BDR"
        x = -183.847763109
        y = 93.6639969252
        color = "#0000ff"
    [[NOTE 4]]
        text = "DR"
        x = -174.655374953
        y = -176.249783362
        color = "#0000ff"
    [[NOTE 5]]
        text = "192.168.1.0 /24"
        x = -184.55486989
        y = -103.923881554
        color = "#0000ff"
    [[NOTE 6]]
        text = ".1"
        x = 69.2964645563
        y = -56.2426406871
        color = "#0000ff"
    [[NOTE 7]]
        text = ".2"
        x = -137.885822331
        y = -145.539105243
        color = "#0000ff"
    [[NOTE 8]]
        text = "192.168.2.0 /24"
        x = 128.693434176
        y = -104.124891681
        color = "#0000ff"
    [[NOTE 9]]
        text = ".1"
        x = -22.627416998
        y = -56.7487373415
        color = "#0000ff"
    [[NOTE 10]]
        text = ".5"
        x = 166.170093579
        y = 53.9690834521
        color = "#0000ff"
    [[NOTE 11]]
        text = ".3"
        x = -138.592929113
        y = 55.785317268
        color = "#0000ff"
    [[NOTE 12]]
        text = ".4"
        x = 167.584307141
        y = -148.769552622
        color = "#0000ff"
