autostart = False
version = 0.8.4
[127.0.0.1:7200]
    workingdir = working
    udp = 11000
    [[3725]]
        image = C:\Users\ActionMystique\Google Drive\Missions\Certifications\Cisco\IOS\Binaries\c3725-adventerprisek9-mz.124-15.T5.image
        ram = 128
        idlepc = 0x602649b4
        idlemax = 500
        sparsemem = True
    [[ROUTER ALS-1]]
        model = 3725
        console = 2004
        aux = 2504
        cnfg = configs\ALS-1.cfg
        slot1 = NM-16ESW
        f1/5 = Cisco-AP-c3600-1 f1/5
        f1/8 = DLS1 f1/8
        symbol = EtherSwitch router
        x = 278.893052745
        y = -57.3695355114
        z = 1.0
        hx = -46.0384941446
        hy = 14.5649127748
[127.0.0.1:7201]
    workingdir = working
    udp = 11100
    [[3725]]
        image = C:\Users\ActionMystique\Google Drive\Missions\Certifications\Cisco\IOS\Binaries\c3725-adventerprisek9-mz.124-15.T5.image
        ram = 128
        idlepc = 0x602649b4
        idlemax = 500
        sparsemem = True
        ghostios = True
    [[ROUTER ALS-2]]
        model = 3725
        console = 2007
        aux = 2507
        cnfg = configs\ALS-2.cfg
        slot1 = NM-16ESW
        f1/5 = Cisco-AP-c3600-2 f1/5
        f1/10 = DLS1 f1/10
        symbol = EtherSwitch router
        x = 581.197600023
        y = -58.9753628232
        z = 1.0
        hx = 51.9566745116
        hy = 11.1828768987
[127.0.0.1:7207]
    workingdir = working
    udp = 11700
    [[3725]]
        image = C:\Users\ActionMystique\Google Drive\Missions\Certifications\Cisco\IOS\Binaries\c3725-adventerprisek9-mz.124-15.T5.image
        ram = 128
        idlepc = 0x602649b4
        idlemax = 500
        sparsemem = True
        ghostios = True
    [[ROUTER Cisco-AP-c3600-1]]
        model = 3725
        console = 2108
        aux = 2508
        cnfg = configs\Cisco-AP-c3600-1.cfg
        slot1 = NM-16ESW
        f1/5 = ALS-1 f1/5
        symbol = lightweight_ap
        x = 270.113186514
        y = 110.578123027
        z = 1.0
    [[ROUTER Cisco-AP-c3600-2]]
        model = 3725
        console = 2109
        aux = 2509
        cnfg = configs\Cisco-AP-c3600-2.cfg
        slot1 = NM-16ESW
        f1/5 = ALS-2 f1/5
        symbol = lightweight_ap
        x = 573.849776058
        y = 112.152615256
        z = 1.0
    [[ROUTER WLC]]
        model = 3725
        console = 2106
        aux = 2506
        cnfg = configs\WLC.cfg
        slot1 = NM-16ESW
        f1/5 = DLS1 f1/5
        symbol = wlan_controller
        x = 43.6306596976
        y = -286.979118093
        z = 1.0
[127.0.0.1:7205]
    workingdir = working
    udp = 11500
    [[3725]]
        image = C:\Users\ActionMystique\Google Drive\Missions\Certifications\Cisco\IOS\Binaries\c3725-adventerprisek9-mz.124-15.T5.image
        ram = 128
        idlepc = 0x602649b4
        idlemax = 500
        sparsemem = True
        ghostios = True
    [[ROUTER DLS1]]
        model = 3725
        console = 2125
        aux = 2525
        cnfg = configs\DLS1.cfg
        slot1 = NM-16ESW
        f1/5 = WLC f1/5
        f1/6 = NIO_udp:30000:127.0.0.1:20000
        f1/8 = ALS-1 f1/8
        f1/10 = ALS-2 f1/10
        symbol = EtherSwitch router
        x = 278.414032256
        y = -294.805230511
        z = 1.0
[GNS3-DATA]
    configs = configs
    workdir = working
    m11 = 0.766664172334
    m22 = 0.766664172334
    [[NOTE 1]]
        text = "1: Prepare the switches for the lab.\n2: Configure VLANs, trunks, and VTP:\nVLAN 1		Management VLAN for the WLC: used for communication with the management workstation.\nVLAN 10		The management computer Host C is in this VLAN.\nVLAN 100 		The AP-manager interface of the WLC is in this VLAN: used for communication with the APs.\nVLAN 50 		The LWAPs are in this VLAN (but they could be in different VLANs).\nVLAN 2 and VLAN 3	 For hosts in the WLANs of LWAP 1 & 2.\n\n3: Configure SVIs.\n4: Configure DHCP:\nVLAN 50 also uses the option command, which allows you to specify a DHCP option.\nIn this case, option 43 is specified (a vendor-specific option), which gives the LWAPs the IP address of the WLAN \ncontroller AP Manager interface. It is specified in a hexadecimal TLV (type, length, value) format. This configuration \nuses f104ac106464, which is made up of the following:\n• f1 is the hardcoded type of option.\n• 04 represents the length of the value (an IP address is 4 octets).\n• ac106464 is the hexadecimal representation of 172.16.100.100, which is going to be the AP manager address of the WLAN controller.\nDHCP option 60 specifies the identifier that access points will use in DHCP.\n\n5: Configure infrastructure wireless support.\n6: Configure the switch port for the management host.\n7: Enable IP routing on DLS1."
        x = -843.91578914
        y = -458.088407861
        font = "Arial,10,-1,5,75,0,0,0,0,0"
    [[NOTE 2]]
        text = "7-2 WLAN Controller and LWAPs"
        x = -206.210203682
        y = -498.530709064
        font = "MS Shell Dlg 2,20,-1,5,75,0,1,0,0,0"
        color = "#0055ff"
    [[NOTE 3]]
        text = "VLAN 50: DHCP"
        x = 555.001805686
        y = 144.087919837
        color = "#0055ff"
    [[NOTE 4]]
        text = "All 802.1Q Trunks"
        x = 337.82718607
        y = -140.261221791
        color = "#0055ff"
    [[NOTE 5]]
        text = " VLAN SVI addresses\n1: 172.16.1.1/24\n2: 172.16.2.1/24\n3: 172.16.3.1/24\n10: 172.16.10.1/24\n50: 172.16.50.1/24\n100: 172.16.100.1/24"
        x = 232.174668418
        y = -434.175156442
        color = "#0055ff"
    [[NOTE 6]]
        text = "VLAN 50"
        x = 274.566110686
        y = 34.0874318138
        color = "#0055ff"
    [[NOTE 7]]
        text = "VLAN 10: DHCP"
        x = 555.653981721
        y = -240.261417
        color = "#0055ff"
    [[NOTE 8]]
        text = "VLAN 1: 172.16.1.100/24\nVLAN 100: 172.16.100.100/24"
        x = -28.6957455344
        y = -254.174570814
        color = "#0055ff"
    [[NOTE 9]]
        text = "VLAN 50"
        x = 577.175790872
        y = 39.7395590464
        color = "#0055ff"
    [[NOTE 10]]
        text = "802.1Q Trunk"
        x = 150.000488023
        y = -294.609484977
        color = "#0055ff"
    [[NOTE 11]]
        text = "VLAN 50: DHCP"
        x = 252.3921255
        y = 141.913934651
        color = "#0055ff"
    [[Cloud VPCS-Host-1]]
        symbol = Host
        x = 576.632416581
        y = -300.153054477
        z = 1.0
        connections = DLS1:f1/6:NIO_udp:30000:127.0.0.1:20000
