Jan 11 11:10:14.081 HYPERVISOR: Release 0.2.14-x86/Windows (tag 2014092320)
Jan 11 11:10:14.081 HYPERVISOR: Started on IP = 127.0.0.1, TCP port = 7205.
Jan 11 11:10:14.633 HYPERVISOR: exec_cmd: hypervisor version 
Jan 11 11:10:14.633 HYPERVISOR: exec_cmd: hypervisor uuid 
Jan 11 11:10:14.633 HYPERVISOR: exec_cmd: hypervisor working_dir C:/Users/ActionMystique/GNS3/projects/CCNP-Security/FIREWALL/Jean-Christophe/1+/Data Center ASA - ASDM - AAA - VMs/Data Center ASA - ASDM - AAA - VMs-files\dynamips 
Jan 11 11:10:14.633 GENERAL: working_dir=C:/Users/ActionMystique/GNS3/projects/CCNP-Security/FIREWALL/Jean-Christophe/1+/Data Center ASA - ASDM - AAA - VMs/Data Center ASA - ASDM - AAA - VMs-files\dynamips
Jan 11 11:10:14.633 HYPERVISOR: exec_cmd: vm create SW6 6 c3725 
Jan 11 11:10:14.633 VM: VM SW6 created.
Jan 11 11:10:14.633 HYPERVISOR: exec_cmd: vm set_con_tcp_port SW6 2006 
Jan 11 11:10:14.633 HYPERVISOR: exec_cmd: vm set_aux_tcp_port SW6 2506 
Jan 11 11:10:14.633 HYPERVISOR: exec_cmd: c3725 get_mac_addr SW6 
Jan 11 11:10:14.633 HYPERVISOR: exec_cmd: vm set_ios SW6 C:\Users\ActionMystique\GNS3\images\IOS\c3725-adventerprisek9-mz.124-15.T10.image 
Jan 11 11:10:14.633 HYPERVISOR: exec_cmd: vm set_sparse_mem SW6 1 
Jan 11 11:10:14.633 HYPERVISOR: exec_cmd: vm set_ram_mmap SW6 1 
Jan 11 11:10:14.633 HYPERVISOR: exec_cmd: c3725 set_mac_addr SW6 c206.0170.0000 
Jan 11 11:10:14.633 HYPERVISOR: exec_cmd: vm set_ghost_status SW6 2 
Jan 11 11:10:14.633 HYPERVISOR: exec_cmd: vm set_ghost_file SW6 c3725-adventerprisek9-mz.124-15.T10.image-128.ghost 
Jan 11 11:10:28.500 HYPERVISOR: exec_cmd: vm set_config SW6 configs\i6_startup-config.cfg 
Jan 11 11:10:28.500 HYPERVISOR: exec_cmd: vm get_status SW6 
Jan 11 11:10:28.500 HYPERVISOR: exec_cmd: vm set_idle_pc SW6 0x6148b5dc 
Jan 11 11:10:28.500 HYPERVISOR: exec_cmd: vm get_status SW6 
Jan 11 11:10:28.500 HYPERVISOR: exec_cmd: vm slot_add_binding SW6 1 0 NM-16ESW 
Jan 11 11:10:28.500 HYPERVISOR: exec_cmd: vm get_status SW6 
Jan 11 11:10:28.814 HYPERVISOR: exec_cmd: nio create_udp_auto nio_udp_auto35 127.0.0.1 10001 20000 
Jan 11 11:10:28.833 HYPERVISOR: exec_cmd: nio create_udp_auto nio_udp_auto37 127.0.0.1 10001 20000 
Jan 11 11:10:28.833 HYPERVISOR: exec_cmd: nio create_udp nio_udp4 30004 127.0.0.1 20004 
Jan 11 11:10:28.833 HYPERVISOR: exec_cmd: vm slot_add_nio_binding SW6 1 4 nio_udp4 
Jan 11 11:10:28.833 HYPERVISOR: exec_cmd: vm get_status SW6 
Jan 11 11:10:28.853 HYPERVISOR: exec_cmd: nio create_udp nio_udp5 30005 127.0.0.1 20005 
Jan 11 11:10:28.853 HYPERVISOR: exec_cmd: vm slot_add_nio_binding SW6 1 5 nio_udp5 
Jan 11 11:10:28.853 HYPERVISOR: exec_cmd: vm get_status SW6 
Jan 11 11:10:30.987 HYPERVISOR: exec_cmd: nio connect_udp_auto nio_udp_auto35 127.0.0.1 10035 
Jan 11 11:10:30.987 HYPERVISOR: exec_cmd: vm slot_add_nio_binding SW6 1 3 nio_udp_auto35 
Jan 11 11:10:30.987 HYPERVISOR: exec_cmd: vm get_status SW6 
Jan 11 11:10:31.007 HYPERVISOR: exec_cmd: nio connect_udp_auto nio_udp_auto37 127.0.0.1 10037 
Jan 11 11:10:31.007 HYPERVISOR: exec_cmd: vm slot_add_nio_binding SW6 1 0 nio_udp_auto37 
Jan 11 11:10:31.007 HYPERVISOR: exec_cmd: vm get_status SW6 
Jan 11 11:11:54.231 HYPERVISOR: exec_cmd: vm extract_config SW6 
Jan 11 11:22:55.890 HYPERVISOR: exec_cmd: vm extract_config SW6 
Jan 11 11:22:58.405 HYPERVISOR: Stopped.
Jan 11 11:22:58.405 VM: VM SW6 destroyed.
Jan 11 11:22:58.421 GENERAL: reset done.
