Jan 11 11:10:16.484 HYPERVISOR: Release 0.2.14-x86/Windows (tag 2014092320)
Jan 11 11:10:16.484 HYPERVISOR: Started on IP = 127.0.0.1, TCP port = 7209.
Jan 11 11:10:17.053 HYPERVISOR: exec_cmd: hypervisor version 
Jan 11 11:10:17.053 HYPERVISOR: exec_cmd: hypervisor uuid 
Jan 11 11:10:17.053 HYPERVISOR: exec_cmd: hypervisor working_dir C:/Users/ActionMystique/GNS3/projects/CCNP-Security/FIREWALL/Jean-Christophe/1+/Data Center ASA - ASDM - AAA - VMs/Data Center ASA - ASDM - AAA - VMs-files\dynamips 
Jan 11 11:10:17.053 GENERAL: working_dir=C:/Users/ActionMystique/GNS3/projects/CCNP-Security/FIREWALL/Jean-Christophe/1+/Data Center ASA - ASDM - AAA - VMs/Data Center ASA - ASDM - AAA - VMs-files\dynamips
Jan 11 11:10:17.053 HYPERVISOR: exec_cmd: vm create SW9 10 c3725 
Jan 11 11:10:17.053 VM: VM SW9 created.
Jan 11 11:10:17.053 HYPERVISOR: exec_cmd: vm set_con_tcp_port SW9 2008 
Jan 11 11:10:17.053 HYPERVISOR: exec_cmd: vm set_aux_tcp_port SW9 2508 
Jan 11 11:10:17.053 HYPERVISOR: exec_cmd: c3725 get_mac_addr SW9 
Jan 11 11:10:17.053 HYPERVISOR: exec_cmd: vm set_ios SW9 C:\Users\ActionMystique\GNS3\images\IOS\c3725-adventerprisek9-mz.124-15.T10.image 
Jan 11 11:10:17.053 HYPERVISOR: exec_cmd: vm set_sparse_mem SW9 1 
Jan 11 11:10:17.053 HYPERVISOR: exec_cmd: vm set_ram_mmap SW9 1 
Jan 11 11:10:17.053 HYPERVISOR: exec_cmd: vm set_con_tcp_port SW9 2017 
Jan 11 11:10:17.053 HYPERVISOR: exec_cmd: vm set_aux_tcp_port SW9 2517 
Jan 11 11:10:17.053 HYPERVISOR: exec_cmd: c3725 set_mac_addr SW9 c20a.0a30.0000 
Jan 11 11:10:17.053 HYPERVISOR: exec_cmd: vm set_ghost_status SW9 2 
Jan 11 11:10:17.053 HYPERVISOR: exec_cmd: vm set_ghost_file SW9 c3725-adventerprisek9-mz.124-15.T10.image-128.ghost 
Jan 11 11:10:28.579 HYPERVISOR: exec_cmd: vm set_config SW9 configs\i10_startup-config.cfg 
Jan 11 11:10:28.579 HYPERVISOR: exec_cmd: vm get_status SW9 
Jan 11 11:10:28.579 HYPERVISOR: exec_cmd: vm set_idle_pc SW9 0x6148b5dc 
Jan 11 11:10:28.579 HYPERVISOR: exec_cmd: vm get_status SW9 
Jan 11 11:10:28.579 HYPERVISOR: exec_cmd: vm slot_add_binding SW9 1 0 NM-16ESW 
Jan 11 11:10:28.579 HYPERVISOR: exec_cmd: vm get_status SW9 
Jan 11 11:10:29.029 HYPERVISOR: exec_cmd: nio create_udp_auto nio_udp_auto61 127.0.0.1 10001 20000 
Jan 11 11:10:29.049 HYPERVISOR: exec_cmd: nio create_udp_auto nio_udp_auto63 127.0.0.1 10001 20000 
Jan 11 11:10:29.068 HYPERVISOR: exec_cmd: nio create_udp nio_udp7 30006 127.0.0.1 20006 
Jan 11 11:10:29.068 HYPERVISOR: exec_cmd: vm slot_add_nio_binding SW9 1 2 nio_udp7 
Jan 11 11:10:29.068 HYPERVISOR: exec_cmd: vm get_status SW9 
Jan 11 11:10:29.088 HYPERVISOR: exec_cmd: nio create_udp nio_udp8 30007 127.0.0.1 20007 
Jan 11 11:10:29.088 HYPERVISOR: exec_cmd: vm slot_add_nio_binding SW9 1 3 nio_udp8 
Jan 11 11:10:29.088 HYPERVISOR: exec_cmd: vm get_status SW9 
Jan 11 11:10:31.300 HYPERVISOR: exec_cmd: nio connect_udp_auto nio_udp_auto61 127.0.0.1 10061 
Jan 11 11:10:31.300 HYPERVISOR: exec_cmd: vm slot_add_nio_binding SW9 1 0 nio_udp_auto61 
Jan 11 11:10:31.300 HYPERVISOR: exec_cmd: vm get_status SW9 
Jan 11 11:10:31.339 HYPERVISOR: exec_cmd: nio connect_udp_auto nio_udp_auto63 127.0.0.1 10063 
Jan 11 11:10:31.339 HYPERVISOR: exec_cmd: vm slot_add_nio_binding SW9 1 1 nio_udp_auto63 
Jan 11 11:10:31.339 HYPERVISOR: exec_cmd: vm get_status SW9 
Jan 11 11:11:54.244 HYPERVISOR: exec_cmd: vm extract_config SW9 
Jan 11 11:22:55.890 HYPERVISOR: exec_cmd: vm extract_config SW9 
Jan 11 11:22:58.405 HYPERVISOR: Stopped.
Jan 11 11:22:58.405 VM: VM SW9 destroyed.
Jan 11 11:22:58.405 GENERAL: reset done.
