Aug 31 18:28:02.177 HYPERVISOR: Release 0.2.16-amd64/Linux (tag 2015060118)
Aug 31 18:28:02.177 HYPERVISOR: Started on IP = 127.0.0.1, TCP port = 60600.
Aug 31 18:28:02.193 HYPERVISOR: exec_cmd: hypervisor version 
Aug 31 18:28:02.193 HYPERVISOR: exec_cmd: hypervisor working_dir /media/actionmystique/SAMSUNG-850-Ext4/Labs/GNS3/Route Reflectors/project-files/dynamips 
Aug 31 18:28:02.193 GENERAL: working_dir=/media/actionmystique/SAMSUNG-850-Ext4/Labs/GNS3/Route Reflectors/project-files/dynamips
Aug 31 18:28:02.198 HYPERVISOR: exec_cmd: vm create Client-Paris 1 c7200 
Aug 31 18:28:02.198 VM: VM Client-Paris created.
Aug 31 18:28:02.208 HYPERVISOR: exec_cmd: vm set_con_tcp_port Client-Paris 2101 
Aug 31 18:28:02.209 HYPERVISOR: exec_cmd: vm set_aux_tcp_port Client-Paris 2501 
Aug 31 18:28:02.211 HYPERVISOR: exec_cmd: c7200 get_mac_addr Client-Paris 
Aug 31 18:28:02.213 HYPERVISOR: exec_cmd: vm get_status Client-Paris 
Aug 31 18:28:02.213 HYPERVISOR: exec_cmd: vm slot_add_binding Client-Paris 0 0 C7200-IO-FE 
Aug 31 18:28:02.214 HYPERVISOR: exec_cmd: vm get_status Client-Paris 
Aug 31 18:28:02.215 HYPERVISOR: exec_cmd: vm set_idle_pc Client-Paris 0x6062d534 
Aug 31 18:28:02.216 HYPERVISOR: exec_cmd: vm set_ram Client-Paris 512 
Aug 31 18:28:02.217 HYPERVISOR: exec_cmd: vm get_status Client-Paris 
Aug 31 18:28:02.219 HYPERVISOR: exec_cmd: vm slot_add_binding Client-Paris 1 0 PA-GE 
Aug 31 18:28:02.220 HYPERVISOR: exec_cmd: vm get_status Client-Paris 
Aug 31 18:28:02.222 HYPERVISOR: exec_cmd: vm slot_remove_binding Client-Paris 0 0 
Aug 31 18:28:02.223 HYPERVISOR: exec_cmd: vm get_status Client-Paris 
Aug 31 18:28:02.225 HYPERVISOR: exec_cmd: vm slot_add_binding Client-Paris 0 0 C7200-IO-GE-E 
Aug 31 18:28:02.227 HYPERVISOR: exec_cmd: vm set_ios Client-Paris /media/actionmystique/SAMSUNG-850-Ext4/Images/GNS3/IOS/c7200-adventerprisek9-mz.152-4.M2.image 
Aug 31 18:28:02.229 HYPERVISOR: exec_cmd: vm set_config Client-Paris configs/i1_startup-config.cfg 
Aug 31 18:28:02.683 HYPERVISOR: exec_cmd: nio create_udp udp-218ad29a-4c76-450d-a22a-71de88b503f4 15000 127.0.0.1 15001 
Aug 31 18:28:02.687 HYPERVISOR: exec_cmd: vm slot_add_nio_binding Client-Paris 1 0 udp-218ad29a-4c76-450d-a22a-71de88b503f4 
Aug 31 18:28:02.690 HYPERVISOR: exec_cmd: vm get_status Client-Paris 
Aug 31 18:28:02.695 HYPERVISOR: exec_cmd: vm extract_config Client-Paris 
Aug 31 18:28:02.811 HYPERVISOR: exec_cmd: nio create_udp udp-dc45ca13-8726-426d-9f8b-bcf931573fdf 15011 127.0.0.1 15014 
Aug 31 18:28:02.811 HYPERVISOR: exec_cmd: vm slot_add_nio_binding Client-Paris 0 0 udp-dc45ca13-8726-426d-9f8b-bcf931573fdf 
Aug 31 18:28:02.812 HYPERVISOR: exec_cmd: vm get_status Client-Paris 
Aug 31 18:28:08.017 HYPERVISOR: exec_cmd: vm set_ghost_status Client-Paris 2 
Aug 31 18:28:08.020 HYPERVISOR: exec_cmd: vm set_ghost_file Client-Paris c7200-adventerprisek9-mz.152-4.M2.image-512.ghost 
Aug 31 18:28:08.021 HYPERVISOR: exec_cmd: vm get_status Client-Paris 
Aug 31 18:28:08.022 HYPERVISOR: exec_cmd: vm start Client-Paris 
Aug 31 18:40:58.208 HYPERVISOR: exec_cmd: vm extract_config Client-Paris 
Aug 31 18:46:15.790 HYPERVISOR: exec_cmd: vm extract_config Client-Paris 
Aug 31 18:46:19.030 HYPERVISOR: exec_cmd: vm get_status Client-Paris 
Aug 31 18:46:19.030 HYPERVISOR: exec_cmd: vm stop Client-Paris 
Aug 31 18:46:19.122 VM: VM Client-Paris shutdown.
Aug 31 18:46:19.122 HYPERVISOR: exec_cmd: vm extract_config Client-Paris 
Aug 31 18:46:36.237 HYPERVISOR: exec_cmd: vm get_status Client-Paris 
Aug 31 18:46:36.240 HYPERVISOR: exec_cmd: vm extract_config Client-Paris 
Aug 31 18:46:36.245 HYPERVISOR: exec_cmd: vm delete Client-Paris 
Aug 31 18:46:36.245 VM: VM Client-Paris destroyed.
Aug 31 18:46:36.249 HYPERVISOR: exec_cmd: hypervisor stop 
Aug 31 18:46:36.719 HYPERVISOR: Stopped.
Aug 31 18:46:36.719 GENERAL: reset done.
