Jul 19 16:10:47.673 HYPERVISOR: Release 0.2.16-amd64/Linux (tag 2015060118)
Jul 19 16:10:47.673 HYPERVISOR: Started on IP = 127.0.0.1, TCP port = 46923.
Jul 19 16:10:47.710 HYPERVISOR: exec_cmd: hypervisor version 
Jul 19 16:10:47.712 HYPERVISOR: exec_cmd: hypervisor working_dir /media/actionmystique/SAMSUNG-850-Ext4/Labs/GNS3/CCNP/TBSHOOT/Exam-Topology/Jean-Christophe_Manciot/1+/v1-solutions-linux/project-files/dynamips 
Jul 19 16:10:47.712 GENERAL: working_dir=/media/actionmystique/SAMSUNG-850-Ext4/Labs/GNS3/CCNP/TBSHOOT/Exam-Topology/Jean-Christophe_Manciot/1+/v1-solutions-linux/project-files/dynamips
Jul 19 16:10:47.712 HYPERVISOR: exec_cmd: vm create ASW1 3 c3725 
Jul 19 16:10:47.712 VM: VM ASW1 created.
Jul 19 16:10:47.713 HYPERVISOR: exec_cmd: vm set_con_tcp_port ASW1 2007 
Jul 19 16:10:47.714 HYPERVISOR: exec_cmd: c3725 get_mac_addr ASW1 
Jul 19 16:10:47.715 HYPERVISOR: exec_cmd: c3725 set_mac_addr ASW1 c203.2c73.0000 
Jul 19 16:10:47.716 HYPERVISOR: exec_cmd: vm set_ios ASW1 /media/actionmystique/SAMSUNG-850-Ext4/Images/GNS3/IOS/c3725-adventerprisek9-mz.124-15.T10.image 
Jul 19 16:10:47.717 HYPERVISOR: exec_cmd: vm get_status ASW1 
Jul 19 16:10:47.720 HYPERVISOR: exec_cmd: vm slot_add_binding ASW1 1 0 NM-16ESW 
Jul 19 16:10:47.721 HYPERVISOR: exec_cmd: vm get_status ASW1 
Jul 19 16:10:47.723 HYPERVISOR: exec_cmd: vm set_idle_pc ASW1 0x6026b804 
Jul 19 16:10:47.725 HYPERVISOR: exec_cmd: vm set_nvram ASW1 256 
Jul 19 16:10:47.726 HYPERVISOR: exec_cmd: vm set_disk0 ASW1 1 
Jul 19 16:10:47.728 HYPERVISOR: exec_cmd: vm slot_add_binding ASW1 0 16 WIC-2T 
Jul 19 16:10:47.730 HYPERVISOR: exec_cmd: vm set_config ASW1 configs/i3_startup-config.cfg 
Jul 19 16:10:47.731 HYPERVISOR: exec_cmd: vm set_config ASW1 configs/i3_startup-config.cfg configs/i3_private-config.cfg 
Jul 19 16:10:48.501 HYPERVISOR: exec_cmd: nio create_udp udp-5c535c88-8bdf-46cc-ba3f-ca8891e8f4cc 15005 127.0.0.1 15004 
Jul 19 16:10:48.502 HYPERVISOR: exec_cmd: vm slot_add_nio_binding ASW1 1 1 udp-5c535c88-8bdf-46cc-ba3f-ca8891e8f4cc 
Jul 19 16:10:48.502 HYPERVISOR: exec_cmd: vm get_status ASW1 
Jul 19 16:10:48.509 HYPERVISOR: exec_cmd: nio create_udp udp-a3be6cf4-41c7-4cc0-94af-0303ccd2e7fa 15006 127.0.0.1 15007 
Jul 19 16:10:48.509 HYPERVISOR: exec_cmd: vm slot_add_nio_binding ASW1 1 2 udp-a3be6cf4-41c7-4cc0-94af-0303ccd2e7fa 
Jul 19 16:10:48.510 HYPERVISOR: exec_cmd: vm get_status ASW1 
Jul 19 16:10:48.537 HYPERVISOR: exec_cmd: nio create_udp udp-28d552b6-a053-4bb7-8100-d4ecd890a11c 15009 127.0.0.1 15008 
Jul 19 16:10:48.538 HYPERVISOR: exec_cmd: vm slot_add_nio_binding ASW1 1 11 udp-28d552b6-a053-4bb7-8100-d4ecd890a11c 
Jul 19 16:10:48.538 HYPERVISOR: exec_cmd: vm get_status ASW1 
Jul 19 16:10:48.554 HYPERVISOR: exec_cmd: nio create_udp udp-ba2be89c-1de7-4756-a575-890cff9775d9 15011 127.0.0.1 15010 
Jul 19 16:10:48.554 HYPERVISOR: exec_cmd: vm slot_add_nio_binding ASW1 1 12 udp-ba2be89c-1de7-4756-a575-890cff9775d9 
Jul 19 16:10:48.555 HYPERVISOR: exec_cmd: vm get_status ASW1 
Jul 19 16:10:48.569 HYPERVISOR: exec_cmd: nio create_udp udp-30b8e7c5-947a-491a-9c56-5cc79091089a 15013 127.0.0.1 15014 
Jul 19 16:10:48.569 HYPERVISOR: exec_cmd: vm slot_add_nio_binding ASW1 1 9 udp-30b8e7c5-947a-491a-9c56-5cc79091089a 
Jul 19 16:10:48.570 HYPERVISOR: exec_cmd: vm get_status ASW1 
Jul 19 16:10:48.589 HYPERVISOR: exec_cmd: nio create_udp udp-d6024c5e-cd75-486f-b05c-9afe3bd8ff80 15015 127.0.0.1 15012 
Jul 19 16:10:48.593 HYPERVISOR: exec_cmd: vm slot_add_nio_binding ASW1 1 10 udp-d6024c5e-cd75-486f-b05c-9afe3bd8ff80 
Jul 19 16:10:48.593 HYPERVISOR: exec_cmd: vm get_status ASW1 
Jul 19 16:10:48.981 HYPERVISOR: exec_cmd: nio create_udp udp-833e1095-c562-4bf0-a6f1-78192ebbb22f 15053 127.0.0.1 15052 
Jul 19 16:10:48.982 HYPERVISOR: exec_cmd: vm slot_add_nio_binding ASW1 1 3 udp-833e1095-c562-4bf0-a6f1-78192ebbb22f 
Jul 19 16:10:48.982 HYPERVISOR: exec_cmd: vm get_status ASW1 
Jul 19 16:11:05.909 HYPERVISOR: exec_cmd: vm get_status ASW1 
Jul 19 16:11:05.914 HYPERVISOR: exec_cmd: vm extract_config ASW1 
Jul 19 16:11:05.926 HYPERVISOR: exec_cmd: vm delete ASW1 
Jul 19 16:11:05.926 VM: VM ASW1 destroyed.
Jul 19 16:11:05.931 HYPERVISOR: exec_cmd: hypervisor stop 
Jul 19 16:11:06.209 HYPERVISOR: Stopped.
Jul 19 16:11:06.209 GENERAL: reset done.
