Jul 19 16:10:47.704 HYPERVISOR: Release 0.2.16-amd64/Linux (tag 2015060118)
Jul 19 16:10:47.704 HYPERVISOR: Started on IP = 127.0.0.1, TCP port = 38505.
Jul 19 16:10:47.725 HYPERVISOR: exec_cmd: hypervisor version 
Jul 19 16:10:47.727 HYPERVISOR: exec_cmd: hypervisor working_dir /media/actionmystique/SAMSUNG-850-Ext4/Labs/GNS3/CCNP/TBSHOOT/Exam-Topology/Jean-Christophe_Manciot/1+/v1-solutions-linux/project-files/dynamips 
Jul 19 16:10:47.727 GENERAL: working_dir=/media/actionmystique/SAMSUNG-850-Ext4/Labs/GNS3/CCNP/TBSHOOT/Exam-Topology/Jean-Christophe_Manciot/1+/v1-solutions-linux/project-files/dynamips
Jul 19 16:10:47.728 HYPERVISOR: exec_cmd: vm create R4 8 c7200 
Jul 19 16:10:47.729 VM: VM R4 created.
Jul 19 16:10:47.730 HYPERVISOR: exec_cmd: vm set_con_tcp_port R4 2003 
Jul 19 16:10:47.731 HYPERVISOR: exec_cmd: c7200 get_mac_addr R4 
Jul 19 16:10:47.736 HYPERVISOR: exec_cmd: vm get_status R4 
Jul 19 16:10:47.743 HYPERVISOR: exec_cmd: vm slot_add_binding R4 0 0 C7200-IO-FE 
Jul 19 16:10:47.746 HYPERVISOR: exec_cmd: vm get_status R4 
Jul 19 16:10:47.748 HYPERVISOR: exec_cmd: vm slot_remove_binding R4 0 0 
Jul 19 16:10:47.749 HYPERVISOR: exec_cmd: vm get_status R4 
Jul 19 16:10:47.751 HYPERVISOR: exec_cmd: vm slot_add_binding R4 0 0 C7200-IO-GE-E 
Jul 19 16:10:47.752 HYPERVISOR: exec_cmd: c7200 set_mac_addr R4 ca08.2e77.0000 
Jul 19 16:10:47.753 HYPERVISOR: exec_cmd: vm set_disk0 R4 1 
Jul 19 16:10:47.755 HYPERVISOR: exec_cmd: vm get_status R4 
Jul 19 16:10:47.756 HYPERVISOR: exec_cmd: vm slot_add_binding R4 6 0 PA-POS-OC3 
Jul 19 16:10:47.757 HYPERVISOR: exec_cmd: vm set_ram R4 512 
Jul 19 16:10:47.759 HYPERVISOR: exec_cmd: vm get_status R4 
Jul 19 16:10:47.760 HYPERVISOR: exec_cmd: vm slot_add_binding R4 3 0 PA-GE 
Jul 19 16:10:47.762 HYPERVISOR: exec_cmd: vm set_ios R4 /media/actionmystique/SAMSUNG-850-Ext4/Images/GNS3/IOS/c7200-adventerprisek9-mz.152-4.M2.image 
Jul 19 16:10:47.764 HYPERVISOR: exec_cmd: vm get_status R4 
Jul 19 16:10:47.765 HYPERVISOR: exec_cmd: vm slot_add_binding R4 4 0 PA-4T+ 
Jul 19 16:10:47.767 HYPERVISOR: exec_cmd: vm get_status R4 
Jul 19 16:10:47.774 HYPERVISOR: exec_cmd: vm set_idle_pc R4 0x6062f0e0 
Jul 19 16:10:47.788 HYPERVISOR: exec_cmd: vm get_status R4 
Jul 19 16:10:47.799 HYPERVISOR: exec_cmd: vm slot_add_binding R4 1 0 PA-GE 
Jul 19 16:10:47.809 HYPERVISOR: exec_cmd: vm get_status R4 
Jul 19 16:10:47.815 HYPERVISOR: exec_cmd: vm slot_add_binding R4 5 0 PA-POS-OC3 
Jul 19 16:10:47.817 HYPERVISOR: exec_cmd: vm get_status R4 
Jul 19 16:10:47.819 HYPERVISOR: exec_cmd: vm slot_add_binding R4 2 0 PA-GE 
Jul 19 16:10:47.822 HYPERVISOR: exec_cmd: vm set_nvram R4 256 
Jul 19 16:10:47.823 HYPERVISOR: exec_cmd: vm set_config R4 configs/i8_startup-config.cfg 
Jul 19 16:10:47.825 HYPERVISOR: exec_cmd: vm set_config R4 configs/i8_startup-config.cfg configs/i8_private-config.cfg 
Jul 19 16:10:48.617 HYPERVISOR: exec_cmd: nio create_udp udp-5b4f1b48-071d-4cc3-8953-fdb46eb7ec4d 15016 127.0.0.1 15019 
Jul 19 16:10:48.618 HYPERVISOR: exec_cmd: vm slot_add_nio_binding R4 0 0 udp-5b4f1b48-071d-4cc3-8953-fdb46eb7ec4d 
Jul 19 16:10:48.618 HYPERVISOR: exec_cmd: vm get_status R4 
Jul 19 16:10:48.655 HYPERVISOR: exec_cmd: nio create_udp udp-f8ab9933-65d7-4821-b340-999377bca731 15020 127.0.0.1 15023 
Jul 19 16:10:48.656 HYPERVISOR: exec_cmd: vm slot_add_nio_binding R4 1 0 udp-f8ab9933-65d7-4821-b340-999377bca731 
Jul 19 16:10:48.657 HYPERVISOR: exec_cmd: vm get_status R4 
Jul 19 16:10:48.695 HYPERVISOR: exec_cmd: nio create_udp udp-bb3e8900-50b3-48db-baf4-eeeec60968b3 15027 127.0.0.1 15026 
Jul 19 16:10:48.697 HYPERVISOR: exec_cmd: vm slot_add_nio_binding R4 4 0 udp-bb3e8900-50b3-48db-baf4-eeeec60968b3 
Jul 19 16:10:48.701 HYPERVISOR: exec_cmd: vm get_status R4 
Jul 19 16:11:05.908 HYPERVISOR: exec_cmd: vm get_status R4 
Jul 19 16:11:05.914 HYPERVISOR: exec_cmd: vm extract_config R4 
Jul 19 16:11:05.925 HYPERVISOR: exec_cmd: vm delete R4 
Jul 19 16:11:05.925 VM: VM R4 destroyed.
Jul 19 16:11:05.930 HYPERVISOR: exec_cmd: hypervisor stop 
Jul 19 16:11:06.237 HYPERVISOR: Stopped.
Jul 19 16:11:06.237 GENERAL: reset done.
