Jul 19 16:10:32.933 HYPERVISOR: Release 0.2.16-amd64/Linux (tag 2015060118)
Jul 19 16:10:32.933 HYPERVISOR: Started on IP = 127.0.0.1, TCP port = 58531.
Jul 19 16:10:32.939 HYPERVISOR: exec_cmd: hypervisor version 
Jul 19 16:10:32.940 HYPERVISOR: exec_cmd: hypervisor working_dir /media/actionmystique/SAMSUNG-850-Ext4/Labs/GNS3/CCNP/TBSHOOT/L2-Technologies/STP/Jean-Christophe_Manciot/1+/TT 1-solutions-linux/project-files/dynamips 
Jul 19 16:10:32.940 GENERAL: working_dir=/media/actionmystique/SAMSUNG-850-Ext4/Labs/GNS3/CCNP/TBSHOOT/L2-Technologies/STP/Jean-Christophe_Manciot/1+/TT 1-solutions-linux/project-files/dynamips
Jul 19 16:10:32.941 HYPERVISOR: exec_cmd: vm create SW1 1 c3725 
Jul 19 16:10:32.941 VM: VM SW1 created.
Jul 19 16:10:32.942 HYPERVISOR: exec_cmd: vm set_con_tcp_port SW1 2001 
Jul 19 16:10:32.942 HYPERVISOR: exec_cmd: c3725 get_mac_addr SW1 
Jul 19 16:10:32.943 HYPERVISOR: exec_cmd: c3725 set_mac_addr SW1 aaaa.aaaa.aaaa 
Jul 19 16:10:32.945 HYPERVISOR: exec_cmd: vm set_ios SW1 /media/actionmystique/SAMSUNG-850-Ext4/Images/GNS3/IOS/c3725-adventerprisek9-mz.124-15.T10.image 
Jul 19 16:10:32.949 HYPERVISOR: exec_cmd: vm get_status SW1 
Jul 19 16:10:32.950 HYPERVISOR: exec_cmd: vm slot_add_binding SW1 1 0 NM-16ESW 
Jul 19 16:10:32.952 HYPERVISOR: exec_cmd: vm get_status SW1 
Jul 19 16:10:32.955 HYPERVISOR: exec_cmd: vm set_idle_pc SW1 0x6026b804 
Jul 19 16:10:32.956 HYPERVISOR: exec_cmd: vm set_nvram SW1 256 
Jul 19 16:10:32.957 HYPERVISOR: exec_cmd: vm set_exec_area SW1 16 
Jul 19 16:10:32.957 HYPERVISOR: exec_cmd: vm set_disk0 SW1 1 
Jul 19 16:10:32.958 HYPERVISOR: exec_cmd: vm slot_add_binding SW1 0 16 WIC-2T 
Jul 19 16:10:32.959 HYPERVISOR: exec_cmd: vm set_config SW1 configs/i1_startup-config.cfg 
Jul 19 16:10:32.960 HYPERVISOR: exec_cmd: vm set_config SW1 configs/i1_startup-config.cfg configs/i1_private-config.cfg 
Jul 19 16:10:33.000 HYPERVISOR: exec_cmd: nio create_null null-9d7784b8-e2b5-4d20-93d6-378a526eaf67 
Jul 19 16:10:33.001 HYPERVISOR: exec_cmd: vm slot_add_nio_binding SW1 1 0 null-9d7784b8-e2b5-4d20-93d6-378a526eaf67 
Jul 19 16:10:33.002 HYPERVISOR: exec_cmd: vm get_status SW1 
Jul 19 16:10:33.128 HYPERVISOR: exec_cmd: nio create_udp udp-9ecd1b01-17fb-4ad3-84da-fefa38bb1c0e 15005 127.0.0.1 15004 
Jul 19 16:10:33.132 HYPERVISOR: exec_cmd: vm slot_add_nio_binding SW1 1 5 udp-9ecd1b01-17fb-4ad3-84da-fefa38bb1c0e 
Jul 19 16:10:33.133 HYPERVISOR: exec_cmd: vm get_status SW1 
Jul 19 16:10:33.138 HYPERVISOR: exec_cmd: nio create_udp udp-6f5cc7a0-23d3-4134-9a68-221e1a2bd390 15006 127.0.0.1 15008 
Jul 19 16:10:33.143 HYPERVISOR: exec_cmd: vm slot_add_nio_binding SW1 1 6 udp-6f5cc7a0-23d3-4134-9a68-221e1a2bd390 
Jul 19 16:10:33.143 HYPERVISOR: exec_cmd: vm get_status SW1 
Jul 19 16:10:33.169 HYPERVISOR: exec_cmd: nio create_udp udp-857be0ca-3c7e-4742-af57-0cc0135b20a3 15007 127.0.0.1 15009 
Jul 19 16:10:33.169 HYPERVISOR: exec_cmd: vm slot_add_nio_binding SW1 1 1 udp-857be0ca-3c7e-4742-af57-0cc0135b20a3 
Jul 19 16:10:33.169 HYPERVISOR: exec_cmd: vm get_status SW1 
Jul 19 16:10:46.908 HYPERVISOR: exec_cmd: vm get_status SW1 
Jul 19 16:10:46.909 HYPERVISOR: exec_cmd: vm extract_config SW1 
Jul 19 16:10:46.913 HYPERVISOR: exec_cmd: vm delete SW1 
Jul 19 16:10:46.913 VM: VM SW1 destroyed.
Jul 19 16:10:46.914 HYPERVISOR: exec_cmd: hypervisor stop 
Jul 19 16:10:46.953 HYPERVISOR: Stopped.
Jul 19 16:10:46.953 GENERAL: reset done.
