Jul 19 16:19:24.232 HYPERVISOR: Release 0.2.16-amd64/Linux (tag 2015060118)
Jul 19 16:19:24.232 HYPERVISOR: Started on IP = 127.0.0.1, TCP port = 42415.
Jul 19 16:19:24.248 HYPERVISOR: exec_cmd: hypervisor version 
Jul 19 16:19:24.249 HYPERVISOR: exec_cmd: hypervisor working_dir /media/actionmystique/SAMSUNG-850-Ext4/Labs/GNS3/CCNP/TBSHOOT/L2-Technologies/STP/Jean-Christophe_Manciot/1+/TT 1-solutions-linux/project-files/dynamips 
Jul 19 16:19:24.249 GENERAL: working_dir=/media/actionmystique/SAMSUNG-850-Ext4/Labs/GNS3/CCNP/TBSHOOT/L2-Technologies/STP/Jean-Christophe_Manciot/1+/TT 1-solutions-linux/project-files/dynamips
Jul 19 16:19:24.250 HYPERVISOR: exec_cmd: vm create SW2 2 c3725 
Jul 19 16:19:24.250 VM: VM SW2 created.
Jul 19 16:19:24.251 HYPERVISOR: exec_cmd: vm set_con_tcp_port SW2 2002 
Jul 19 16:19:24.252 HYPERVISOR: exec_cmd: c3725 get_mac_addr SW2 
Jul 19 16:19:24.253 HYPERVISOR: exec_cmd: c3725 set_mac_addr SW2 eeee.eeee.eeee 
Jul 19 16:19:24.254 HYPERVISOR: exec_cmd: vm set_ios SW2 /media/actionmystique/SAMSUNG-850-Ext4/Images/GNS3/IOS/c3725-adventerprisek9-mz.124-15.T10.image 
Jul 19 16:19:24.256 HYPERVISOR: exec_cmd: vm get_status SW2 
Jul 19 16:19:24.257 HYPERVISOR: exec_cmd: vm slot_add_binding SW2 1 0 NM-16ESW 
Jul 19 16:19:24.258 HYPERVISOR: exec_cmd: vm get_status SW2 
Jul 19 16:19:24.259 HYPERVISOR: exec_cmd: vm set_idle_pc SW2 0x6026b804 
Jul 19 16:19:24.261 HYPERVISOR: exec_cmd: vm set_nvram SW2 256 
Jul 19 16:19:24.265 HYPERVISOR: exec_cmd: vm set_exec_area SW2 16 
Jul 19 16:19:24.266 HYPERVISOR: exec_cmd: vm set_disk0 SW2 1 
Jul 19 16:19:24.267 HYPERVISOR: exec_cmd: vm slot_add_binding SW2 0 16 WIC-2T 
Jul 19 16:19:24.271 HYPERVISOR: exec_cmd: vm set_config SW2 configs/i2_startup-config.cfg 
Jul 19 16:19:24.272 HYPERVISOR: exec_cmd: vm set_config SW2 configs/i2_startup-config.cfg configs/i2_private-config.cfg 
Jul 19 16:19:24.405 HYPERVISOR: exec_cmd: nio create_udp udp-654d4ee0-fe09-4e7e-a7bd-c1a05a1d9daa 15001 127.0.0.1 15000 
Jul 19 16:19:24.406 HYPERVISOR: exec_cmd: vm slot_add_nio_binding SW2 1 1 udp-654d4ee0-fe09-4e7e-a7bd-c1a05a1d9daa 
Jul 19 16:19:24.406 HYPERVISOR: exec_cmd: vm get_status SW2 
Jul 19 16:19:24.425 HYPERVISOR: exec_cmd: nio create_udp udp-fd6198a7-1dfa-4e93-8348-6bde03f8a013 15002 127.0.0.1 15003 
Jul 19 16:19:24.426 HYPERVISOR: exec_cmd: vm slot_add_nio_binding SW2 1 0 udp-fd6198a7-1dfa-4e93-8348-6bde03f8a013 
Jul 19 16:19:24.426 HYPERVISOR: exec_cmd: vm get_status SW2 
Jul 19 16:19:24.444 HYPERVISOR: exec_cmd: nio create_udp udp-9d0d4779-0c0e-449b-985a-57d61450645a 15004 127.0.0.1 15005 
Jul 19 16:19:24.445 HYPERVISOR: exec_cmd: vm slot_add_nio_binding SW2 1 2 udp-9d0d4779-0c0e-449b-985a-57d61450645a 
Jul 19 16:19:24.445 HYPERVISOR: exec_cmd: vm get_status SW2 
Jul 19 16:20:29.572 HYPERVISOR: exec_cmd: vm get_status SW2 
Jul 19 16:20:29.573 HYPERVISOR: exec_cmd: vm extract_config SW2 
Jul 19 16:20:29.575 HYPERVISOR: exec_cmd: vm delete SW2 
Jul 19 16:20:29.575 VM: VM SW2 destroyed.
Jul 19 16:20:29.576 HYPERVISOR: exec_cmd: hypervisor stop 
Jul 19 16:20:29.810 HYPERVISOR: Stopped.
Jul 19 16:20:29.810 GENERAL: reset done.
