Jul 29 17:46:02.856 HYPERVISOR: Release 0.2.16-amd64/Linux (tag 2015060118)
Jul 29 17:46:02.856 HYPERVISOR: Started on IP = 127.0.0.1, TCP port = 33107.
Jul 29 17:46:02.866 HYPERVISOR: exec_cmd: hypervisor version 
Jul 29 17:46:02.866 HYPERVISOR: exec_cmd: hypervisor working_dir /media/actionmystique/SAMSUNG-850-Ext4/Labs/GNS3/CCNP/TBSHOOT/L2-Technologies/STP/Jean-Christophe_Manciot/1+/TT 1-solutions-linux/project-files/dynamips 
Jul 29 17:46:02.866 GENERAL: working_dir=/media/actionmystique/SAMSUNG-850-Ext4/Labs/GNS3/CCNP/TBSHOOT/L2-Technologies/STP/Jean-Christophe_Manciot/1+/TT 1-solutions-linux/project-files/dynamips
Jul 29 17:46:02.866 HYPERVISOR: exec_cmd: vm create SW2 2 c3725 
Jul 29 17:46:02.866 VM: VM SW2 created.
Jul 29 17:46:02.867 HYPERVISOR: exec_cmd: vm set_con_tcp_port SW2 2002 
Jul 29 17:46:02.867 HYPERVISOR: exec_cmd: c3725 get_mac_addr SW2 
Jul 29 17:46:02.867 HYPERVISOR: exec_cmd: vm set_ios SW2 /media/actionmystique/SAMSUNG-850-Ext4/Images/GNS3/IOS/c3725-adventerprisek9-mz.124-15.T10.image 
Jul 29 17:46:02.868 HYPERVISOR: exec_cmd: vm set_disk0 SW2 1 
Jul 29 17:46:02.868 HYPERVISOR: exec_cmd: c3725 set_mac_addr SW2 eeee.eeee.eeee 
Jul 29 17:46:02.868 HYPERVISOR: exec_cmd: vm slot_add_binding SW2 0 16 WIC-2T 
Jul 29 17:46:02.869 HYPERVISOR: exec_cmd: vm set_nvram SW2 256 
Jul 29 17:46:02.869 HYPERVISOR: exec_cmd: vm get_status SW2 
Jul 29 17:46:02.870 HYPERVISOR: exec_cmd: vm set_idle_pc SW2 0x6026b804 
Jul 29 17:46:02.870 HYPERVISOR: exec_cmd: vm set_exec_area SW2 16 
Jul 29 17:46:02.870 HYPERVISOR: exec_cmd: vm get_status SW2 
Jul 29 17:46:02.871 HYPERVISOR: exec_cmd: vm slot_add_binding SW2 1 0 NM-16ESW 
Jul 29 17:46:02.871 HYPERVISOR: exec_cmd: vm set_config SW2 configs/i2_startup-config.cfg 
Jul 29 17:46:02.872 HYPERVISOR: exec_cmd: vm set_config SW2 configs/i2_startup-config.cfg configs/i2_private-config.cfg 
Jul 29 17:46:03.029 HYPERVISOR: exec_cmd: nio create_udp udp-c3383205-c946-43d7-804a-8a20f8de03ed 15006 127.0.0.1 15005 
Jul 29 17:46:03.032 HYPERVISOR: exec_cmd: vm slot_add_nio_binding SW2 1 0 udp-c3383205-c946-43d7-804a-8a20f8de03ed 
Jul 29 17:46:03.032 HYPERVISOR: exec_cmd: vm get_status SW2 
Jul 29 17:46:03.051 HYPERVISOR: exec_cmd: nio create_udp udp-f3d5c8f0-00f3-4aca-8735-261f8dc4c961 15007 127.0.0.1 15004 
Jul 29 17:46:03.052 HYPERVISOR: exec_cmd: vm slot_add_nio_binding SW2 1 2 udp-f3d5c8f0-00f3-4aca-8735-261f8dc4c961 
Jul 29 17:46:03.052 HYPERVISOR: exec_cmd: vm get_status SW2 
Jul 29 17:46:03.085 HYPERVISOR: exec_cmd: nio create_udp udp-bdf2d168-2291-47b2-82e0-aed01ee80ac0 15008 127.0.0.1 15009 
Jul 29 17:46:03.085 HYPERVISOR: exec_cmd: vm slot_add_nio_binding SW2 1 1 udp-bdf2d168-2291-47b2-82e0-aed01ee80ac0 
Jul 29 17:46:03.085 HYPERVISOR: exec_cmd: vm get_status SW2 
Jul 29 17:46:06.727 HYPERVISOR: exec_cmd: vm get_status SW2 
Jul 29 17:46:06.728 HYPERVISOR: exec_cmd: vm extract_config SW2 
Jul 29 17:46:06.734 HYPERVISOR: exec_cmd: vm delete SW2 
Jul 29 17:46:06.734 VM: VM SW2 destroyed.
Jul 29 17:46:06.735 HYPERVISOR: exec_cmd: hypervisor stop 
Jul 29 17:46:06.869 HYPERVISOR: Stopped.
Jul 29 17:46:06.869 GENERAL: reset done.
