tclsh
foreach address {
172.16.1.1
172.16.2.1
172.16.3.1
172.16.3.33
172.16.3.65
172.16.3.97
172.16.4.1
172.16.4.33
172.16.4.65
172.16.4.97
172.16.12.1
172.16.12.2
172.16.23.2
172.16.23.3
172.16.34.3
172.16.34.4
} {
ping $address }
exit
