autostart = False
[127.0.0.1:7200]
    workingdir = C:\Users\ActionMystique\Documents\Missions\GNS3\Temp
    udp = 10000
    [[3640]]
        image = C:\Users\ActionMystique\Documents\Missions\IOS\Binaries\c3640-jk9o3s-mz.124-16a.bin
        ram = 192
        idlepc = 0x6307ad74
        sparsemem = True
        ghostios = True
        chassis = 3640
    [[ROUTER Harry]]
        model = 3640
        console = 2001
        slot0 = NM-1FE-TX
        f0/0 = Jack f0/0
        slot1 = NM-1FE-TX
        f1/0 = Sam f0/0
        cnfg = configs/Harry.cfg
        x = -143.308657865
        y = 19.71930009
        hx = 74.4680374315
        hy = 2.57716446628
    [[ROUTER Jack]]
        model = 3640
        console = 2000
        slot0 = NM-1FE-TX
        f0/0 = Harry f0/0
        cnfg = configs/Jack.cfg
        x = -142.845058323
        y = -110.414213562
    [[ROUTER Sam]]
        model = 3640
        console = 2002
        slot0 = NM-1FE-TX
        f0/0 = Harry f1/0
        cnfg = configs/Sam.cfg
        x = -143.308657865
        y = 205.688383542
        hx = 11.5857864376
        hy = 38.6396103068
[GNS3-DATA]
    configs = configs
    m11 = 1.41421356237
    m22 = 1.41421356237
    [[NOTE 1]]
        text = AREA 1
        x = -202.232539419
        y = 139.826947828
        color = "#323232"
    [[NOTE 2]]
        text = AREA 0
        x = -207.889393669
        y = -76.346717088
        color = "#323232"
    [[NOTE 3]]
        text = .3
        x = -132.936074863
        y = 184.277741317
        color = "#0000ff"
    [[NOTE 4]]
        text = .2
        x = -131.521861301
        y = 60.7350647363
        color = "#0000ff"
    [[NOTE 5]]
        text = .2
        x = -131.521861301
        y = -0.582215100159
        color = "#0000ff"
    [[NOTE 6]]
        text = .1
        x = -130.107647738
        y = -70.3847763109
        color = "#0000ff"
    [[NOTE 7]]
        text = 192.168.23.0 /24
        x = -178.89801564
        y = 119.320851174
        color = "#0000ff"
    [[NOTE 8]]
        text = 192.168.12.0 /24
        x = -178.89801564
        y = -37.4558441227
        color = "#0000ff"
    [[NOTE 9]]
        text = f0/0
        x = 34.4142135624
        y = -22.9497474683
        interface = Sam f0/0
        color = "#323232"
    [[NOTE 10]]
        text = f1/0
        x = 33.0
        y = 42.2010101268
        interface = Harry f1/0
        color = "#323232"
    [[NOTE 11]]
        text = f0/0
        x = 34.55671232
        y = -22.2423868626
        interface = Harry f0/0
        color = "#323232"
    [[NOTE 12]]
        text = f0/0
        x = 34.2717148048
        y = 40.7865427399
        interface = Jack f0/0
        color = "#323232"
    [[SHAPE 1]]
        type = ellipse
        x = -211.424927575
        y = 31.1126983722
        width = 200.0
        height = 200.0
        fill_color = "#aaff7f"
        border_style = 2
        z = -2.0
    [[SHAPE 2]]
        type = ellipse
        x = -211.424927575
        y = -161.220346111
        width = 200.0
        height = 200.0
        fill_color = "#ffff7f"
        border_style = 2
        z = -2.0
