autostart = False
version = 0.8.6
[127.0.0.1:7202]
    udp = 10200
    [[7200]]
        image = c7200-adventerprisek9-mz.152-4.M2.image
        ram = 512
        idlepc = 0x62a29de4
        sparsemem = True
        ghostios = True
    [[ROUTER ABR2]]
        console = 2005
        aux = 2105
        cnfg = configs/ABR2.cfg
        slot0 = C7200-IO-GE-E
        g0/0 = ABR1 g0/0
        slot1 = PA-8T
        s1/0 = FR1 2
        slot2 = PA-2FE-TX
        f2/0 = BR8 f1/1
        f2/1 = BR7 f1/1
        x = 163.585786438
        y = 129.343145751
        z = 1.0
        hx = 7.25735931288
        hy = 41.4680374315
    [[ROUTER IR5]]
        console = 2003
        aux = 2100
        cnfg = configs/IR5.cfg
        slot0 = C7200-IO-GE-E
        g0/0 = ABR3 g0/0
        slot1 = PA-8T
        s1/0 = FR1 5
        x = -202.499566724
        y = 302.38477631
        z = 1.0
        hx = 64.0685424949
        hy = 10.3553390593
[127.0.0.1:7203]
    udp = 10300
    [[7200]]
        image = c7200-adventerprisek9-mz.152-4.M2.image
        ram = 512
        idlepc = 0x62a29de4
        sparsemem = True
        ghostios = True
    [[ROUTER BR8]]
        console = 2011
        aux = 2511
        cnfg = configs/BR8.cfg
        slot0 = C7200-IO-GE-E
        g0/0 = BR7 g0/0
        slot1 = PA-2FE-TX
        f1/0 = ABR1 f2/1
        f1/1 = ABR2 f2/0
        slot2 = PA-2FE-TX
        f2/0 = SW1 f1/5
        f2/1 = ABR15 f1/0
        x = 368.636651714
        y = 130.735064736
        z = 1.0
        hx = 15.0857864376
        hy = 37.2253967444
    [[ROUTER BR7]]
        console = 2010
        aux = 2510
        cnfg = configs/BR7.cfg
        slot0 = C7200-IO-GE-E
        g0/0 = BR8 g0/0
        slot1 = PA-2FE-TX
        f1/0 = ABR1 f2/0
        f1/1 = ABR2 f2/1
        slot2 = PA-2FE-TX
        f2/0 = SW1 f1/3
        x = 364.394011027
        y = -166.249783362
        z = 1.0
[127.0.0.1:7200]
    udp = 10000
    [[7200]]
        image = c7200-adventerprisek9-mz.152-4.M2.image
        ram = 512
        idlepc = 0x62a29de4
        sparsemem = True
        ghostios = True
    [[ROUTER ABR1]]
        console = 2000
        aux = 2111
        cnfg = configs/ABR1.cfg
        slot0 = C7200-IO-GE-E
        g0/0 = ABR2 g0/0
        slot1 = PA-8T
        s1/0 = FR1 1
        slot2 = PA-2FE-TX
        f2/0 = BR7 f1/0
        f2/1 = BR8 f1/0
        slot3 = PA-2FE-TX
        f3/0 = SW1 f1/2
        x = 164.0
        y = -164.0
        z = 1.0
        hx = 1.60050506339
        hy = -22.1715728753
    [[FRSW FR1]]
        1:103 = 3:301
        1:104 = 4:401
        1:105 = 5:501
        2:203 = 3:302
        2:204 = 4:402
        2:205 = 5:502
        3:301 = 1:103
        3:302 = 2:203
        4:401 = 1:104
        4:402 = 2:204
        5:501 = 1:105
        5:502 = 2:205
        1 = ABR1 s1/0
        2 = ABR2 s1/0
        3 = IR3 s1/0
        4 = IR4 s1/0
        5 = IR5 s1/0
        x = -19.5
        y = -22.5
        z = 1.0
[127.0.0.1:7201]
    udp = 10100
    [[7200]]
        image = c7200-adventerprisek9-mz.152-4.M2.image
        ram = 512
        idlepc = 0x62a29de4
        sparsemem = True
        ghostios = True
    [[ROUTER IR3]]
        console = 2001
        aux = 2102
        cnfg = configs/IR3.cfg
        slot0 = C7200-IO-GE-E
        g0/0 = IR4 g0/0
        slot1 = PA-8T
        s1/0 = FR1 3
        slot2 = PA-GE
        x = -228.661904884
        y = -152.142135623
        z = 1.0
        hx = 18.0
        hy = -20.7573593129
    [[ROUTER IR4]]
        console = 2002
        aux = 2103
        cnfg = configs/IR4.cfg
        slot0 = C7200-IO-GE-E
        g0/0 = IR3 g0/0
        slot1 = PA-8T
        s1/0 = FR1 4
        slot2 = PA-GE
        x = -229.661904884
        y = 124.936074863
        z = 1.0
        hx = 23.0563491861
        hy = 38.6396103067
[127.0.0.1:7206]
    udp = 10600
    [[7200]]
        image = c7200-adventerprisek9-mz.152-4.M2.image
        ram = 512
        idlepc = 0x62a29de4
        sparsemem = True
        ghostios = True
    [[ROUTER ABR15]]
        console = 2025
        aux = 2525
        cnfg = configs/ABR15.cfg
        slot0 = C7200-IO-GE-E
        g0/0 = IR16 g0/0
        slot1 = PA-2FE-TX
        f1/0 = BR8 f2/1
        slot2 = PA-2FE-TX
        slot3 = PA-GE
        x = 381.0
        y = 320.0
        z = 1.0
        hx = 63.5
        hy = 16.4680374315
    [[ROUTER ABR14]]
        console = 2024
        aux = 2524
        cnfg = configs/ABR14.cfg
        slot0 = C7200-IO-GE-E
        g0/0 = IR18 g0/0
        slot1 = PA-2FE-TX
        f1/0 = SW1 f1/6
        slot2 = PA-2FE-TX
        x = 480.632467632
        y = 279.882250994
        z = 1.0
        hx = -22.1984848098
        hy = -17.9289321882
[127.0.0.1:7207]
    udp = 10700
    [[7200]]
        image = c7200-adventerprisek9-mz.152-4.M2.image
        ram = 512
        idlepc = 0x62a29de4
        sparsemem = True
        ghostios = True
    [[ROUTER ABR3]]
        console = 2014
        aux = 2514
        cnfg = configs/ABR3.cfg
        slot0 = C7200-IO-GE-E
        g0/0 = IR5 g0/0
        slot1 = PA-POS-OC3
        p1/0 = BR1 p2/0
        slot2 = PA-POS-OC3
        p2/0 = BR2 p3/0
        slot3 = PA-GE
        g3/0 = IR16 g1/0
        x = -369.0
        y = 376.0
        z = 1.0
        hx = 3.01471862576
        hy = 40.0538238692
    [[ROUTER BR2]]
        console = 2013
        aux = 2513
        cnfg = configs/BR2.cfg
        slot0 = C7200-IO-GE-E
        slot1 = PA-GE
        slot2 = PA-POS-OC3
        p2/0 = BR1 p1/0
        slot3 = PA-POS-OC3
        p3/0 = ABR3 p2/0
        x = -477.0
        y = -10.0
        z = 1.0
[127.0.0.1:7204]
    udp = 10400
    [[3725]]
        image = c3725-adventerprisek9-mz.124-15.T10.image
        ram = 128
        idlepc = 0x602649b4
        sparsemem = True
    [[ROUTER SW1]]
        model = 3725
        console = 2009
        aux = 2509
        cnfg = configs/SW1.cfg
        slot1 = NM-16ESW
        f1/2 = ABR1 f3/0
        f1/3 = BR7 f2/0
        f1/4 = ABR9 f1/0
        f1/5 = BR8 f2/0
        f1/6 = ABR14 f1/0
        f1/7 = ABR19 f1/0
        f1/8 = ABR18 f1/0
        symbol = EtherSwitch router
        x = 482.202668892
        y = -17.8431457502
        z = 1.0
[127.0.0.1:7205]
    udp = 10500
    [[7200]]
        image = c7200-adventerprisek9-mz.152-4.M2.image
        ram = 512
        idlepc = 0x62a29de4
        sparsemem = True
        ghostios = True
    [[ROUTER ABR9]]
        console = 2012
        aux = 2512
        cnfg = configs/ABR9.cfg
        slot0 = C7200-IO-GE-E
        g0/0 = IR17 g0/0
        slot1 = PA-2FE-TX
        f1/0 = SW1 f1/4
        slot2 = PA-2FE-TX
        slot3 = PA-2FE-TX
        slot4 = PA-2FE-TX
        x = 601.052957318
        y = 110.828427125
        z = 1.0
        hx = -6.37005768509
        hy = -22.1715728752
[127.0.0.1:7208]
    udp = 10800
    [[7200]]
        image = c7200-adventerprisek9-mz.152-4.M2.image
        ram = 512
        idlepc = 0x62a29de4
        sparsemem = True
        ghostios = True
    [[ROUTER IR16]]
        console = 2026
        aux = 2526
        cnfg = configs/IR16.cfg
        slot0 = C7200-IO-GE-E
        g0/0 = ABR15 g0/0
        slot1 = PA-GE
        g1/0 = ABR3 g3/0
        x = 11.252741955
        y = 411.230447378
        z = 1.0
        hx = 16.2279220614
        hy = 41.4680374316
    [[ROUTER BR1]]
        console = 2015
        aux = 2515
        cnfg = configs/BR1.cfg
        slot0 = C7200-IO-GE-E
        slot1 = PA-POS-OC3
        p1/0 = BR2 p2/0
        slot2 = PA-POS-OC3
        p2/0 = ABR3 p1/0
        x = -623.0
        y = 140.0
        z = 1.0
[127.0.0.1:7209]
    udp = 10900
    [[7200]]
        image = c7200-adventerprisek9-mz.152-4.M2.image
        ram = 512
        idlepc = 0x62a29de4
        sparsemem = True
        ghostios = True
    [[ROUTER IR18]]
        console = 2017
        aux = 2517
        cnfg = configs/IR18.cfg
        slot0 = C7200-IO-GE-E
        g0/0 = ABR14 g0/0
        x = 585.56139982
        y = 448.894444303
        z = 1.0
    [[ROUTER IR17]]
        console = 2018
        aux = 2518
        cnfg = configs/IR17.cfg
        slot0 = C7200-IO-GE-E
        g0/0 = ABR9 g0/0
        x = 865.786796564
        y = 286.201010127
        z = 1.0
[127.0.0.1:7212]
    udp = 11020
    [[7200]]
        image = c7200-adventerprisek9-mz.152-4.M2.image
        ram = 512
        idlepc = 0x62a29de4
        sparsemem = True
        ghostios = True
    [[ROUTER IR21]]
        console = 2022
        aux = 2522
        cnfg = configs/IR21.cfg
        slot0 = C7200-IO-GE-E
        g0/0 = ABR18 g2/0
        slot1 = PA-GE
        g1/0 = ABR19 g2/0
        slot2 = PA-GE
        g2/0 = IR20 g0/0
        x = 919.942350986
        y = -228.239682094
        z = 1.0
        hx = 12.9705627485
        hy = -20.1715728753
[127.0.0.1:7210]
    udp = 10910
    [[7200]]
        image = c7200-adventerprisek9-mz.152-4.M2.image
        ram = 512
        idlepc = 0x62a29de4
        sparsemem = True
        ghostios = True
    [[ROUTER ABR19]]
        console = 2021
        aux = 2521
        cnfg = configs/ABR19.cfg
        slot0 = C7200-IO-GE-E
        slot1 = PA-FE-TX
        f1/0 = SW1 f1/7
        slot2 = PA-GE
        g2/0 = IR21 g1/0
        x = 618.047906683
        y = -85.7888886059
        z = 1.0
        hx = 9.75735931289
        hy = 42.8822509939
    [[ROUTER ABR18]]
        console = 2019
        aux = 2519
        cnfg = configs/ABR18.cfg
        slot0 = C7200-IO-GE-E
        slot1 = PA-FE-TX
        f1/0 = SW1 f1/8
        slot2 = PA-GE
        g2/0 = IR21 g0/0
        x = 569.928065636
        y = -225.646752982
        z = 1.0
        hx = -30.6837661841
        hy = -17.9289321882
[127.0.0.1:7211]
    udp = 10920
    [[7200]]
        image = c7200-adventerprisek9-mz.152-4.M2.image
        ram = 512
        idlepc = 0x62a29de4
        sparsemem = True
        ghostios = True
    [[ROUTER IR20]]
        console = 2023
        aux = 2523
        cnfg = configs/IR20.cfg
        slot0 = C7200-IO-GE-E
        g0/0 = IR21 g2/0
        x = 1063.73629023
        y = -174.65894629
        z = 1.0
        hx = 12.7279220614
        hy = -19.7989898732
[GNS3-DATA]
    configs = configs
    m11 = 0.5
    m22 = 0.5
    [[NOTE 1]]
        text = "35.5/29"
        x = -265.071067812
        y = 322.50880144
        z = 3.0
    [[NOTE 2]]
        text = "Multiple Areas OSPF over Frame-Relay, Gigabit and Fast Ethernet"
        x = -255.913780286
        y = -456.063058585
        font = "MS Shell Dlg 2,20,-1,5,75,0,1,0,0,0"
        color = "#0000ff"
    [[NOTE 3]]
        text = "28.8/24"
        x = 316.095454429
        y = 153.556349186
    [[NOTE 4]]
        text = "|"
        x = 1083.94592232
        y = 60.4989539796
    [[NOTE 5]]
        text = "* Summarized in Areas 0/5/15"
        x = 797.730626847
        y = 96.2806999098
        font = "MS Shell Dlg 2,12,-1,5,75,0,0,0,0,0"
    [[NOTE 6]]
        text = "163.16/27"
        x = -70.1522368918
        y = 433.143361112
    [[NOTE 7]]
        text = "13.1/29"
        x = 110.0
        y = -141.0
    [[NOTE 8]]
        text = "MD5 Athentication"
        x = 9.896536344
        y = 519.737156777
    [[NOTE 9]]
        text = "130.0/24*"
        x = 421.997041406
        y = 398.27416998
    [[NOTE 10]]
        text = "-- Filtered in Area 5 and on BR7"
        x = 792.073772597
        y = 144.564971157
        font = "MS Shell Dlg 2,12,-1,5,75,0,0,0,0,0"
    [[NOTE 11]]
        text = "|"
        x = -172.345237792
        y = 333.482756057
    [[NOTE 12]]
        text = "10.15.0.0/16"
        x = 13.553390593
        y = 534.7148622
        font = "MS Shell Dlg 2,12,-1,5,75,0,0,0,0,0"
    [[NOTE 13]]
        text = "23.3/29"
        x = -149.247691321
        y = -157.727922062
    [[NOTE 14]]
        text = "179.17/27"
        x = 793.898628384
        y = 298.109739779
    [[NOTE 15]]
        text = "|"
        x = 1042.93372902
        y = 41.913167542
    [[NOTE 16]]
        text = "Virtual Link"
        x = 719.650937063
        y = -251.043289325
        font = "MS Shell Dlg 2,12,-1,5,75,0,0,0,0,0"
        color = "#ffff00"
    [[NOTE 17]]
        text = "OSPF Area 34"
        x = 18.3015151903
        y = -292.842712475
        font = "MS Shell Dlg 2,12,-1,5,75,0,0,0,0,0"
        color = "#0055ff"
    [[NOTE 18]]
        text = "|"
        x = 404.0
        y = 418.0
    [[NOTE 19]]
        text = "11.7/24"
        x = 424.747258045
        y = -127.762409946
    [[NOTE 20]]
        text = "--"
        x = 408.171572875
        y = 437.585786438
    [[NOTE 21]]
        text = "Virtual Links"
        x = 75.12279964
        y = -418.322943214
        font = "MS Shell Dlg 2,20,-1,5,75,0,0,0,0,0"
        color = "#0000ff"
    [[NOTE 22]]
        text = "221.21/27"
        x = 950.248916811
        y = -183.343145749
    [[NOTE 23]]
        text = "11.8/24"
        x = 424.747258045
        y = 121.139177031
    [[NOTE 24]]
        text = "15.1/29"
        x = 122.0
        y = -114.0
    [[NOTE 25]]
        text = "10.9.0.0/16"
        x = 362.180807591
        y = -350.156420974
        font = "MS Shell Dlg 2,12,-1,5,75,0,0,0,0,0"
    [[NOTE 26]]
        text = "--"
        x = 691.250396106
        y = 107.771031918
    [[NOTE 27]]
        text = "13.3/29"
        x = -424.877200361
        y = 375.437733628
    [[NOTE 28]]
        text = "131.32/27*"
        x = 421.997041406
        y = 437.445742855
    [[NOTE 29]]
        text = "--"
        x = 605.318759133
        y = 344.823376491
    [[NOTE 30]]
        text = "218.21/27"
        x = 848.388960392
        y = -246.916738879
    [[NOTE 31]]
        text = "|"
        x = 1042.93372902
        y = 41.913167542
    [[NOTE 32]]
        text = "--"
        x = 691.250396106
        y = 47.7710319177
    [[NOTE 33]]
        text = "MD5 Athentication"
        x = 348.482322782
        y = -328.605988974
    [[NOTE 34]]
        text = "27.7/24"
        x = 307.610173055
        y = -116.889393669
    [[NOTE 35]]
        text = "27.2/24"
        x = 228.414213562
        y = 116.656854249
    [[NOTE 36]]
        text = "11.11/24"
        x = 414.847763109
        y = -0.282179206261
    [[NOTE 37]]
        text = "219.21/27"
        x = 858.058007951
        y = -175.578643762
    [[NOTE 38]]
        text = "|"
        x = 1022.59058327
        y = 185.778174593
    [[NOTE 39]]
        text = "10.10.34.3/24"
        x = -255.407070888
        y = -84.514718626
    [[NOTE 40]]
        text = "^"
        x = 1041.51951545
        y = 36.658333546
    [[NOTE 41]]
        text = "16.5/29"
        x = -212.541197284
        y = 286.08326112
    [[NOTE 42]]
        text = "--"
        x = 408.171572875
        y = 417.585786438
    [[NOTE 43]]
        text = "--"
        x = 408.171572875
        y = 397.585786438
    [[NOTE 44]]
        text = "10.18.0.0/16"
        x = 707.065150626
        y = -343.6711396
        font = "MS Shell Dlg 2,12,-1,5,75,0,0,0,0,0"
    [[NOTE 45]]
        text = "|"
        x = 687.007755419
        y = 107.570021791
    [[NOTE 46]]
        text = "|"
        x = 687.007755419
        y = 147.570021791
    [[NOTE 47]]
        text = "^"
        x = 1082.53170876
        y = 53.4278861676
    [[NOTE 48]]
        text = "|"
        x = 687.007755419
        y = 164.570021791
    [[NOTE 49]]
        text = "OSPF Backbone Area"
        x = -550.730880655
        y = -349.269119345
        font = "MS Shell Dlg 2,12,-1,5,75,0,0,0,0,0"
        color = "#0055ff"
    [[NOTE 50]]
        text = "10.13.0.0/16"
        x = 829.983981546
        y = -8.977705424
        font = "MS Shell Dlg 2,12,-1,5,75,0,0,0,0,0"
    [[NOTE 51]]
        text = "--"
        x = 691.250396106
        y = 47.7710319177
    [[NOTE 52]]
        text = "15.5/29"
        x = -213.487373415
        y = 267.414213563
    [[NOTE 53]]
        text = "18.8/24"
        x = 321.509667992
        y = 113.558441227
    [[NOTE 54]]
        text = "--"
        x = 605.318759133
        y = 304.823376491
    [[NOTE 55]]
        text = "221.20/27"
        x = 998.817459306
        y = -152.213203434
    [[NOTE 56]]
        text = "37.12.0.0/16"
        x = -516.381817718
        y = -314.261976671
        font = "MS Shell Dlg 2,12,-1,5,75,0,0,0,0,0"
    [[NOTE 57]]
        text = "502"
        x = -67.1076477383
        y = 155.343145751
    [[NOTE 58]]
        text = "163.3/27"
        x = -306.325901808
        y = 407.888527117
    [[NOTE 59]]
        text = "203"
        x = 83.0
        y = 42.0
    [[NOTE 60]]
        text = "35.3/29"
        x = -290.769552622
        y = 368.491557497
    [[NOTE 61]]
        text = "|"
        x = 599.626550446
        y = 345.796031281
    [[NOTE 62]]
        text = "501"
        x = -130.95836944
        y = 158.651803616
    [[NOTE 63]]
        text = "158.15/24"
        x = 380.906637611
        y = 296.099638511
    [[NOTE 64]]
        text = "13.3/29"
        x = -156.247691321
        y = -122.727922062
    [[NOTE 65]]
        text = "10.14.0.0/16"
        x = 559.928065636
        y = 260.139177031
        font = "MS Shell Dlg 2,12,-1,5,75,0,0,0,0,0"
    [[NOTE 66]]
        text = "204"
        x = 83.0
        y = 60.0
    [[NOTE 67]]
        text = "OSPF Area 18"
        x = 708.638743755
        y = -377.920922962
        font = "MS Shell Dlg 2,12,-1,5,75,0,0,0,0,0"
        color = "#0055ff"
    [[NOTE 68]]
        text = "* Filtered in Area 34 and on SW1/BR8"
        x = 797.730626847
        y = 73.8542930386
        font = "MS Shell Dlg 2,12,-1,5,75,0,0,0,0,0"
    [[NOTE 69]]
        text = "219.19/27"
        x = 651.021428024
        y = -109.980664015
    [[NOTE 70]]
        text = "165.16/27"
        x = 78.3401871576
        y = 427.285496737
    [[NOTE 71]]
        text = "10.10.34.4/24"
        x = -259.791847199
        y = 83.1370849895
    [[NOTE 72]]
        text = "|"
        x = 687.007755419
        y = 127.570021791
    [[NOTE 73]]
        text = "205"
        x = 85.0
        y = 78.0
    [[NOTE 74]]
        text = "|"
        x = 687.007755419
        y = 144.570021791
    [[NOTE 75]]
        text = "10.20.0.0/16"
        x = 991.439825669
        y = -103.213203436
        font = "MS Shell Dlg 2,12,-1,5,75,0,0,0,0,0"
    [[NOTE 76]]
        text = "131.0/27*"
        x = 421.997041406
        y = 418.27416998
    [[NOTE 77]]
        text = "OSPF Totally Stubby Area 14"
        x = 492.60303038
        y = 509.282179208
        font = "MS Shell Dlg 2,12,-1,5,75,0,0,0,0,0"
        color = "#0055ff"
    [[NOTE 78]]
        text = "401"
        x = -145.514718626
        y = 49.7609306503
    [[NOTE 79]]
        text = "--"
        x = 691.250396106
        y = 87.7710319177
    [[NOTE 80]]
        text = "-----------"
        x = 537.401153701
        y = 300.541197285
    [[NOTE 81]]
        text = "10.12.0.0/16"
        x = -264.558441227
        y = -320.499566724
        font = "MS Shell Dlg 2,12,-1,5,75,0,0,0,0,0"
    [[NOTE 82]]
        text = "v"
        x = 1022.59058327
        y = 195.67766953
    [[NOTE 83]]
        text = "------"
        x = 656.115403158
        y = 165.112698372
    [[NOTE 84]]
        text = "179.9/27"
        x = 675.104689145
        y = 219.114790413
    [[NOTE 85]]
        text = "17.7/24"
        x = 307.367532368
        y = -140.088311755
    [[NOTE 86]]
        text = "OSPF Area 15"
        x = 4.284271247
        y = 562.873016279
        font = "MS Shell Dlg 2,12,-1,5,75,0,0,0,0,0"
        color = "#0055ff"
    [[NOTE 87]]
        text = "|"
        x = 404.0
        y = 378.0
    [[NOTE 88]]
        text = "17.1/24"
        x = 231.0
        y = -168.171572876
    [[NOTE 89]]
        text = "67.16/28*"
        x = 621.315800539
        y = 363.097546471
    [[NOTE 90]]
        text = "Virtual Link"
        x = 38.0
        y = 341.0
        font = "MS Shell Dlg 2,12,-1,5,75,0,0,0,0,0"
        color = "#ffff00"
    [[NOTE 91]]
        text = "11.9/24"
        x = 562.653895656
        y = 36.2863632884
    [[NOTE 92]]
        text = "|"
        x = 687.007755419
        y = 47.5700217917
    [[NOTE 93]]
        text = "184.18/27"
        x = 515.499566724
        y = 443.160605056
    [[NOTE 94]]
        text = "--"
        x = 605.318759133
        y = 324.823376491
    [[NOTE 95]]
        text = "13.1/29"
        x = -612.31580054
        y = 191.67323164
    [[NOTE 96]]
        text = "|"
        x = 599.626550446
        y = 305.796031281
    [[NOTE 97]]
        text = "|"
        x = 599.626550446
        y = 362.796031281
    [[NOTE 98]]
        text = "11.18/24"
        x = 522.327993849
        y = -187.360389692
    [[NOTE 99]]
        text = "67.0/28*"
        x = 621.315800539
        y = 345.097546471
    [[NOTE 100]]
        text = "5.5/27"
        x = -205.31580054
        y = 371.246212025
    [[NOTE 101]]
        text = "66.0/24*"
        x = 621.315800539
        y = 325.097546471
    [[NOTE 102]]
        text = "|"
        x = 404.0
        y = 438.0
    [[NOTE 103]]
        text = "32.0/23*"
        x = 703.4615075
        y = 48.1025971047
    [[NOTE 104]]
        text = "302"
        x = -134.564971157
        y = -58.5355339059
    [[NOTE 105]]
        text = "<=====================>"
        x = 628.0
        y = -232.0
        font = "MS Shell Dlg 2,12,-1,5,75,0,0,0,0,0"
        color = "#ffff00"
    [[NOTE 106]]
        text = "16.2/29"
        x = 107.0
        y = 137.0
    [[NOTE 107]]
        text = "12.2/30"
        x = -537.788888606
        y = 21.5411972842
    [[NOTE 108]]
        text = "|"
        x = 1022.59058327
        y = 165.778174593
    [[NOTE 109]]
        text = "--"
        x = 691.250396106
        y = 87.7710319181
    [[NOTE 110]]
        text = "OSPF Backbone Area"
        x = 325.269119345
        y = -380.09754647
        font = "MS Shell Dlg 2,12,-1,5,75,0,0,0,0,0"
        color = "#0055ff"
    [[NOTE 111]]
        text = "103"
        x = 62.0
        y = -91.0
    [[NOTE 112]]
        text = "OSPF Area 5"
        x = -263.203102168
        y = -348.198051533
        font = "MS Shell Dlg 2,12,-1,5,75,0,0,0,0,0"
        color = "#0055ff"
    [[NOTE 113]]
        text = "10.10.0.0/16"
        x = -87.693434176
        y = -258.27416998
        font = "MS Shell Dlg 2,12,-1,5,75,0,0,0,0,0"
    [[NOTE 114]]
        text = "--"
        x = 605.318759133
        y = 364.823376491
    [[NOTE 115]]
        text = "78.8/24"
        x = 368.421356237
        y = 86.3553390584
    [[NOTE 116]]
        text = "158.8/24"
        x = 409.190908859
        y = 184.577777211
    [[NOTE 117]]
        text = "--"
        x = 408.171572875
        y = 377.585786438
    [[NOTE 118]]
        text = "218.18/27"
        x = 636.879292401
        y = -201.703535443
    [[NOTE 119]]
        text = "--"
        x = 691.250396106
        y = 147.771031918
    [[NOTE 120]]
        text = "105"
        x = 64.0
        y = -55.0
    [[NOTE 121]]
        text = "Extended ACL"
        x = 1024.5489527
        y = 21.10198436
    [[NOTE 122]]
        text = "35.0/25*"
        x = 705.582827844
        y = 88.1025971047
    [[NOTE 123]]
        text = "13.2/29"
        x = 111.0
        y = 108.0
    [[NOTE 124]]
        text = "12.1/24"
        x = 180.556349186
        y = -76.4436508139
    [[NOTE 125]]
        text = "104"
        x = 62.0
        y = -74.0
    [[NOTE 126]]
        text = "128.0/23*"
        x = 421.997041406
        y = 378.27416998
    [[NOTE 127]]
        text = "MD5 Athentication"
        x = -272.3574311
        y = -298.865873603
    [[NOTE 128]]
        text = "|"
        x = 599.626550446
        y = 325.796031281
    [[NOTE 129]]
        text = "12.1/30"
        x = -610.600071788
        y = 96.4356415867
    [[NOTE 130]]
        text = "35.128/25*"
        x = 705.582827844
        y = 108.102597104
    [[NOTE 131]]
        text = "Optical Fiber\nNetwork"
        x = -531.989898732
        y = 143.546247918
        font = "MS Shell Dlg 2,12,-1,5,75,1,0,0,0,0"
        color = "#55aa00"
    [[NOTE 132]]
        text = "|"
        x = 404.0
        y = 398.0
    [[NOTE 133]]
        text = "|"
        x = 1042.93372902
        y = 61.9131675416
    [[NOTE 134]]
        text = "32.2/29"
        x = -420.333044483
        y = 39.9087296521
    [[NOTE 135]]
        text = "--"
        x = 691.250396106
        y = 67.7710319177
    [[NOTE 136]]
        text = "34.0/24*"
        x = 704.168614281
        y = 67.3954903236
    [[NOTE 137]]
        text = "---"
        x = -171.0
        y = -156.0
    [[NOTE 138]]
        text = "402"
        x = -109.159379566
        y = 80.4888527117
    [[NOTE 139]]
        text = "OSPF Stub Area 13"
        x = 807.213203435
        y = 348.953318807
        font = "MS Shell Dlg 2,12,-1,5,75,0,0,0,0,0"
        color = "#0055ff"
    [[NOTE 140]]
        text = "13.4/29"
        x = -170.490332008
        y = 121.894444303
    [[NOTE 141]]
        text = "|"
        x = 1042.93372902
        y = 61.9131675416
    [[NOTE 142]]
        text = "36.0/26-"
        x = 704.875721062
        y = 127.395490323
    [[NOTE 143]]
        text = "165.15/27"
        x = 297.028570699
        y = 332.444876303
    [[NOTE 144]]
        text = "10.11.0.0/16"
        x = -88.2792206136
        y = -277.457936164
        font = "MS Shell Dlg 2,12,-1,5,75,0,0,0,0,0"
    [[NOTE 145]]
        text = "|"
        x = 687.007755419
        y = 87.5700217917
    [[NOTE 146]]
        text = "11.19/24"
        x = 554.854905784
        y = -58.7674605794
    [[NOTE 147]]
        text = "MD5 Athentication"
        x = 823.457069612
        y = 13.643794389
    [[NOTE 148]]
        text = "|"
        x = -172.345237792
        y = 353.482756057
    [[NOTE 149]]
        text = "MD5 Athentication"
        x = 696.579869252
        y = -321.392785538
    [[NOTE 150]]
        text = "|"
        x = 687.007755419
        y = 107.570021791
    [[NOTE 151]]
        text = "78.7/24"
        x = 368.421356237
        y = -100.119841048
    [[NOTE 152]]
        text = "<======================================================>"
        x = -324.0
        y = 354.0
        font = "MS Shell Dlg 2,12,-1,5,75,0,0,0,0,0"
        color = "#ffff00"
    [[NOTE 153]]
        text = "--"
        x = 691.250396106
        y = 67.7710319177
    [[NOTE 154]]
        text = "11.1/24"
        x = 235.242640687
        y = -135.845671067
    [[NOTE 155]]
        text = "- Filtered in Areas 34/5 and on BR7"
        x = 799.144840409
        y = 123.552777849
        font = "MS Shell Dlg 2,12,-1,5,75,0,0,0,0,0"
    [[NOTE 156]]
        text = "11.14/24"
        x = 506.771644663
        y = 197.5067094
    [[NOTE 157]]
        text = "184.14/27"
        x = 505.600071787
        y = 371.236723501
    [[NOTE 158]]
        text = "12.2/24"
        x = 184.970562748
        y = 86.1715728753
    [[NOTE 159]]
        text = "Route Map"
        x = 994.30631202
        y = 209.4177849
    [[NOTE 160]]
        text = "--"
        x = 691.250396106
        y = 127.771031918
    [[NOTE 161]]
        text = "|"
        x = 687.007755419
        y = 127.570021791
    [[NOTE 162]]
        text = "18.1/24"
        x = 202.715728753
        y = -105.443650814
    [[NOTE 163]]
        text = "Prefix list"
        x = 1069.8037867
        y = 39.084740418
    [[NOTE 164]]
        text = "MD5 Athentication"
        x = 986.954544295
        y = -117.704401996
    [[NOTE 165]]
        text = "28.2/24"
        x = 227.0
        y = 158.0
    [[NOTE 166]]
        text = "OSPF Area 20"
        x = 983.113923862
        y = -65.923881555
        font = "MS Shell Dlg 2,12,-1,5,75,0,0,0,0,0"
        color = "#0055ff"
    [[NOTE 167]]
        text = "MD5 Athentication"
        x = -526.915872327
        y = -292.037446479
    [[NOTE 168]]
        text = "|"
        x = 404.0
        y = 358.0
    [[NOTE 169]]
        text = "36.64/26--"
        x = 706.11836175
        y = 148.395490323
    [[NOTE 170]]
        text = "|"
        x = 687.007755419
        y = 67.5700217917
    [[NOTE 171]]
        text = "Clear Text Athentication"
        x = -109.048773235
        y = -235.559307779
    [[NOTE 172]]
        text = "32.3/29"
        x = -388.09545443
        y = 331.295598005
    [[NOTE 173]]
        text = "301"
        x = -121.251262658
        y = -98.2132034356
    [[NOTE 174]]
        text = "64.0/23*"
        x = 621.315800539
        y = 306.097546471
    [[NOTE 175]]
        text = "MD5 Athentication"
        x = 552.129075763
        y = 280.518036156
    [[SHAPE 1]]
        type = ellipse
        x = 632.585786438
        y = -10.0
        width = 513.414213562
        height = 358.0
        fill_color = "#00aaff"
        border_style = 2
    [[SHAPE 2]]
        type = ellipse
        x = 500.318759133
        y = 255.823376491
        width = 230.0
        height = 258.0
        fill_color = "#00aaff"
        border_style = 2
    [[SHAPE 3]]
        type = ellipse
        x = -266.0
        y = -279.0
        width = 464.0
        height = 588.0
        fill_color = "#00aaff"
        border_style = 2
    [[SHAPE 4]]
        type = ellipse
        x = 598.100505063
        y = -350.0
        width = 342.351513915
        height = 357.985281374
        fill_color = "#55aaff"
        border_style = 2
    [[SHAPE 5]]
        type = ellipse
        x = 942.587011927
        y = -266.801081914
        width = 205.412988073
        height = 200.0
        fill_color = "#55aaff"
        border_style = 2
        z = -1.0
    [[SHAPE 6]]
        type = ellipse
        x = 169.705627485
        y = -351.224963468
        width = 483.661038331
        height = 688.722004875
        fill_color = "#ffff7f"
        border_style = 2
        z = -1.0
    [[SHAPE 7]]
        type = ellipse
        x = -660.0
        y = -320.585786438
        width = 394.308657865
        height = 808.585786438
        fill_color = "#ffff7f"
        border_style = 2
        z = -2.0
    [[SHAPE 8]]
        type = ellipse
        x = -596.798123321
        y = -322.198051534
        width = 789.484414822
        height = 725.491557497
        fill_color = "#00aaff"
        border_style = 2
        z = -4.0
    [[SHAPE 9]]
        type = ellipse
        x = -346.0
        y = 300.0
        width = 850.0
        height = 260.0
        fill_color = "#00aaff"
        border_style = 2
        z = -6.0
