tclsh
foreach address {
172.16.1.1
172.16.12.1
172.16.2.1
172.16.12.2
172.16.23.2
172.16.23.3
172.16.3.1
192.168.48.1
192.168.49.1
192.168.50.1
192.168.51.1
192.168.70.1
192.168.20.1
192.168.25.1
192.168.30.1
192.168.35.1
192.168.40.1
} {
ping $address }
exit
