autostart = False
[localhost:7200]
    workingdir = C:\Users\ActionMystique\Documents\Missions\GNS3\Temp
    udp = 10000
    [[3640]]
        image = C:\Users\ActionMystique\Documents\Missions\IOS\Binaries\c3640-jk9o3s-mz.124-16a.bin
        ram = 192
        idlepc = 0x6307ad74
        sparsemem = True
        ghostios = True
        chassis = 3640
    [[ROUTER R4]]
        model = 3640
        console = 2003
        slot0 = NM-4T
        s0/0 = R2 s0/2
        cnfg = OSPF over FrameRelay PointtoPoint_configs/R4.cfg
        x = 119.038671968
        y = 142.837049096
    [[ROUTER R1]]
        model = 3640
        console = 2000
        slot0 = NM-4T
        s0/0 = R2 s0/0
        cnfg = OSPF over FrameRelay PointtoPoint_configs/R1.cfg
        x = -148.198051534
        y = 156.30151519
    [[ROUTER R2]]
        model = 3640
        console = 2001
        slot0 = NM-4T
        s0/0 = R1 s0/0
        s0/1 = R3 s0/0
        s0/2 = R4 s0/0
        cnfg = OSPF over FrameRelay PointtoPoint_configs/R2.cfg
        x = -32.0
        y = -24.0
    [[ROUTER R3]]
        model = 3640
        console = 2002
        slot0 = NM-4T
        s0/0 = R2 s0/1
        cnfg = OSPF over FrameRelay PointtoPoint_configs/R3.cfg
        x = -46.4558441227
        y = -174.109127035
[GNS3-DATA]
    configs = OSPF over FrameRelay PointtoPoint_configs
    m11 = 1.41421356237
    m22 = 1.41421356237
