autostart = False
version = 0.8.3.1
[qemu 127.0.0.1:10525]
    workingdir = C:\Users\ActionMystique\AppData\Local\GNS3
    udp = 40000
    [[5520]]
        ram = 1024
        netcard = e1000
        options = -vnc none -vga none -m 1024 -icount auto -hdachs 980,16,32
        initrd = C:\Users\ActionMystique\Google Drive\Missions\Certifications\Cisco\IOS\Binaries\ASA842\asa842-initrd.gz
        kernel = C:\Users\ActionMystique\Google Drive\Missions\Certifications\Cisco\IOS\Binaries\ASA842\asa842-vmlinuz
        kernel_cmdline = -append ide_generic.probe_mask=0x01 ide_core.chs=0.0:980,16,32 auto nousb console=ttyS0,9600 bigphysarea=65536
    [[ASA ASA_5520]]
        e0 = Switch f1/1
        x = 197.0
        y = -157.0
        z = 1.0
[127.0.0.1:7200]
    workingdir = C:\Users\ActionMystique\AppData\Local\GNS3
    udp = 10000
    [[3725]]
        image = C:\Users\ActionMystique\Google Drive\Missions\Certifications\Cisco\IOS\Binaries\c3725-adventerprisek9-mz.124-15.T5.image
        ram = 128
        idlepc = 0x62af9f1c
        sparsemem = True
    [[ROUTER Switch]]
        model = 3725
        console = 2001
        aux = 2501
        cnfg = configs\Switch.cfg
        slot1 = NM-16ESW
        f1/0 = nio_gen_eth:\device\npf_{5043fc71-fe85-49c3-aa5c-fdbfeb88d97a}
        f1/1 = ASA_5520 e0
        symbol = EtherSwitch router
        x = -50.5
        y = -162.5
        z = 1.0
[GNS3-DATA]
    configs = configs
    [[NOTE 1]]
        text = ".127/24"
        x = -339.0
        y = -104.0
    [[NOTE 2]]
        text = "VLAN 1 to test connections \nwith MS LI and ASA\n             .1/24"
        x = -105.0
        y = -114.0
    [[NOTE 3]]
        text = "ASDM Access Through Microsoft Loopback Interface"
        x = -304.0
        y = -350.0
        font = "MS Shell Dlg 2,16,-1,5,75,0,0,0,0,0"
        color = "#0055ff"
    [[NOTE 4]]
        text = "speed 10"
        x = -167.0
        y = -165.0
    [[NOTE 5]]
        text = ".254/24"
        x = 140.0
        y = -130.0
    [[NOTE 6]]
        text = "192.168.137.0/24"
        x = -91.0
        y = -242.0
    [[Cloud ASDM_on_your_PC]]
        symbol = Host
        x = -336.5
        y = -58.5
        z = 1.0
    [[Cloud Microsoft_Loopback_Interface]]
        x = -391.5
        y = -173.0
        z = 1.0
        connections = Switch:f1/0:nio_gen_eth:\device\npf_{5043fc71-fe85-49c3-aa5c-fdbfeb88d97a}
