Aug 31 18:46:39.530 HYPERVISOR: Release 0.2.16-amd64/Linux (tag 2015060118)
Aug 31 18:46:39.530 HYPERVISOR: Started on IP = 127.0.0.1, TCP port = 41142.
Aug 31 18:46:39.553 HYPERVISOR: exec_cmd: hypervisor version 
Aug 31 18:46:39.566 HYPERVISOR: exec_cmd: hypervisor working_dir /media/actionmystique/SAMSUNG-850-Ext4/Labs/GNS3/Confederations/project-files/dynamips 
Aug 31 18:46:39.566 GENERAL: working_dir=/media/actionmystique/SAMSUNG-850-Ext4/Labs/GNS3/Confederations/project-files/dynamips
Aug 31 18:46:39.568 HYPERVISOR: exec_cmd: vm create Berlin 3 c7200 
Aug 31 18:46:39.568 VM: VM Berlin created.
Aug 31 18:46:39.571 HYPERVISOR: exec_cmd: vm set_con_tcp_port Berlin 2103 
Aug 31 18:46:39.572 HYPERVISOR: exec_cmd: vm set_aux_tcp_port Berlin 2503 
Aug 31 18:46:39.573 HYPERVISOR: exec_cmd: c7200 get_mac_addr Berlin 
Aug 31 18:46:39.574 HYPERVISOR: exec_cmd: vm get_status Berlin 
Aug 31 18:46:39.575 HYPERVISOR: exec_cmd: vm slot_add_binding Berlin 0 0 C7200-IO-FE 
Aug 31 18:46:39.577 HYPERVISOR: exec_cmd: vm get_status Berlin 
Aug 31 18:46:39.579 HYPERVISOR: exec_cmd: vm slot_add_binding Berlin 2 0 PA-GE 
Aug 31 18:46:39.581 HYPERVISOR: exec_cmd: vm get_status Berlin 
Aug 31 18:46:39.583 HYPERVISOR: exec_cmd: vm set_idle_pc Berlin 0x6062d534 
Aug 31 18:46:39.589 HYPERVISOR: exec_cmd: vm set_ram Berlin 512 
Aug 31 18:46:39.598 HYPERVISOR: exec_cmd: vm get_status Berlin 
Aug 31 18:46:39.601 HYPERVISOR: exec_cmd: vm slot_add_binding Berlin 1 0 PA-GE 
Aug 31 18:46:39.603 HYPERVISOR: exec_cmd: vm get_status Berlin 
Aug 31 18:46:39.604 HYPERVISOR: exec_cmd: vm slot_add_binding Berlin 3 0 PA-GE 
Aug 31 18:46:39.605 HYPERVISOR: exec_cmd: vm get_status Berlin 
Aug 31 18:46:39.607 HYPERVISOR: exec_cmd: vm slot_remove_binding Berlin 0 0 
Aug 31 18:46:39.608 HYPERVISOR: exec_cmd: vm get_status Berlin 
Aug 31 18:46:39.609 HYPERVISOR: exec_cmd: vm slot_add_binding Berlin 0 0 C7200-IO-GE-E 
Aug 31 18:46:39.610 HYPERVISOR: exec_cmd: vm set_ios Berlin /media/actionmystique/SAMSUNG-850-Ext4/Images/GNS3/IOS/c7200-adventerprisek9-mz.152-4.M2.image 
Aug 31 18:46:39.613 HYPERVISOR: exec_cmd: vm set_config Berlin configs/i3_startup-config.cfg 
Aug 31 18:46:40.114 HYPERVISOR: exec_cmd: vm extract_config Berlin 
Aug 31 18:46:40.152 HYPERVISOR: exec_cmd: nio create_udp udp-e2714cc2-fcc4-4dee-a648-68aac82611b0 15003 127.0.0.1 15002 
Aug 31 18:46:40.155 HYPERVISOR: exec_cmd: vm slot_add_nio_binding Berlin 0 0 udp-e2714cc2-fcc4-4dee-a648-68aac82611b0 
Aug 31 18:46:40.155 HYPERVISOR: exec_cmd: vm get_status Berlin 
Aug 31 18:46:40.164 HYPERVISOR: exec_cmd: nio create_udp udp-7e591c87-832c-4baf-a1ea-52be92a68f5c 15004 127.0.0.1 15005 
Aug 31 18:46:40.166 HYPERVISOR: exec_cmd: vm slot_add_nio_binding Berlin 3 0 udp-7e591c87-832c-4baf-a1ea-52be92a68f5c 
Aug 31 18:46:40.166 HYPERVISOR: exec_cmd: vm get_status Berlin 
Aug 31 18:46:40.243 HYPERVISOR: exec_cmd: nio create_udp udp-790a3312-9cc1-4474-8cf1-7598a1dd6430 15012 127.0.0.1 15014 
Aug 31 18:46:40.244 HYPERVISOR: exec_cmd: vm slot_add_nio_binding Berlin 1 0 udp-790a3312-9cc1-4474-8cf1-7598a1dd6430 
Aug 31 18:46:40.244 HYPERVISOR: exec_cmd: vm get_status Berlin 
Aug 31 18:46:40.278 HYPERVISOR: exec_cmd: nio create_udp udp-198f1e92-02a7-4b98-b59f-4cf4866b8ba9 15018 127.0.0.1 15017 
Aug 31 18:46:40.279 HYPERVISOR: exec_cmd: vm slot_add_nio_binding Berlin 2 0 udp-198f1e92-02a7-4b98-b59f-4cf4866b8ba9 
Aug 31 18:46:40.280 HYPERVISOR: exec_cmd: vm get_status Berlin 
Aug 31 18:46:52.052 HYPERVISOR: exec_cmd: vm set_ghost_status Berlin 2 
Aug 31 18:46:52.053 HYPERVISOR: exec_cmd: vm set_ghost_file Berlin c7200-adventerprisek9-mz.152-4.M2.image-512.ghost 
Aug 31 18:46:52.054 HYPERVISOR: exec_cmd: vm get_status Berlin 
Aug 31 18:46:52.054 HYPERVISOR: exec_cmd: vm start Berlin 
Aug 31 18:53:17.540 HYPERVISOR: exec_cmd: vm extract_config Berlin 
Aug 31 18:53:19.363 HYPERVISOR: exec_cmd: vm get_status Berlin 
Aug 31 18:53:19.364 HYPERVISOR: exec_cmd: vm stop Berlin 
Aug 31 18:53:19.490 VM: VM Berlin shutdown.
Aug 31 18:53:19.491 HYPERVISOR: exec_cmd: vm extract_config Berlin 
Aug 31 18:53:20.785 HYPERVISOR: exec_cmd: vm get_status Berlin 
Aug 31 18:53:20.787 HYPERVISOR: exec_cmd: vm extract_config Berlin 
Aug 31 18:53:20.791 HYPERVISOR: exec_cmd: vm delete Berlin 
Aug 31 18:53:20.791 VM: VM Berlin destroyed.
Aug 31 18:53:20.793 HYPERVISOR: exec_cmd: hypervisor stop 
Aug 31 18:53:20.902 HYPERVISOR: Stopped.
Aug 31 18:53:20.902 GENERAL: reset done.
