autostart = False
version = 0.8.2
[127.0.0.1:7200]
    workingdir = C:\Users\ActionMystique\Documents\Missions\GNS3\Temp
    udp = 10000
    [[3725]]
        image = C:\Users\ActionMystique\Documents\Missions\IOS\Binaries\c3725-adventerprisek9-mz.124-15.T5.image
        ram = 128
        idlepc = 0x60bec7a8
        sparsemem = True
        ghostios = True
    [[ROUTER R4]]
        model = 3725
        console = 2003
        aux = 2108
        cnfg = configs\R4.cfg
        wic0/0 = WIC-2T
        wic0/1 = WIC-2T
        s0/0 = R3 s0/2
        f0/0 = SW1 4
        slot1 = NM-1FE-TX
        slot2 = NM-1FE-TX
        x = -89.0
        y = 186.0
        z = 1.0
    [[ETHSW SW1]]
        1 = access 1 R1 f0/0
        4 = access 1 R4 f0/0
        x = -379.5
        y = 193.0
        z = 1.0
    [[ROUTER R1]]
        model = 3725
        console = 2000
        aux = 2109
        cnfg = configs\R1.cfg
        wic0/0 = WIC-2T
        wic0/1 = WIC-2T
        s0/0 = R2 s0/0
        s0/1 = R3 s0/0
        f0/0 = SW1 1
        slot1 = NM-1FE-TX
        slot2 = NM-1FE-TX
        x = -378.0
        y = -17.0
        z = 1.0
    [[ROUTER R2]]
        model = 3725
        console = 2001
        aux = 2110
        cnfg = configs\R2.cfg
        wic0/0 = WIC-2T
        wic0/1 = WIC-2T
        s0/0 = R1 s0/0
        s0/1 = R3 s0/1
        slot1 = NM-1FE-TX
        slot2 = NM-1FE-TX
        x = -99.0
        y = -303.0
        z = 1.0
    [[ROUTER R3]]
        model = 3725
        console = 2002
        aux = 2111
        cnfg = configs\R3.cfg
        wic0/0 = WIC-2T
        wic0/1 = WIC-2T
        s0/0 = R1 s0/1
        s0/1 = R2 s0/1
        s0/2 = R4 s0/0
        slot1 = NM-1FE-TX
        slot2 = NM-1FE-TX
        x = 179.0
        y = -9.0
        z = 1.0
[GNS3-DATA]
    configs = configs
    m11 = 0.707106781187
    m22 = 0.707106781187
    width = 5000
    height = 2500
    [[NOTE 1]]
        text = BGP AS 65002\nEIGRP AS 65002
        x = 153.0
        y = 219.5
        font = "Sans Serif,12,-1,5,75,0,0,0,0,0"
    [[NOTE 2]]
        text = Lo3: 10.3.3.3/24
        x = 280.0
        y = -11.5
    [[NOTE 3]]
        text = Lo0: 172.16.0.1/22\nLo4: 172.16.4.1/22\nLo8: 172.16.8.1/22\nLo12: 172.16.12.1/22
        x = -126.0
        y = 263.5
    [[NOTE 4]]
        text = 192.168.14.0/24
        x = -311.0
        y = 142.5
    [[NOTE 5]]
        text = s0/0\nDCE\n.3
        x = 97.0
        y = -21.5
    [[NOTE 6]]
        text = fa0/0\n.1
        x = -399.0
        y = 34.5
    [[NOTE 7]]
        text = Lo2: 10.2.2.2/24\nLo200: 10.20.0.1/24\nLo201: 10.20.1.1/24\nLo202: 10.20.2.1/24\nLo203: 10.20.3.1/24
        x = -144.0
        y = -422.5
    [[NOTE 8]]
        text = 1
        x = -381.0
        y = 150.5
    [[NOTE 9]]
        text = 10.1.203.0/29
        x = 90.0
        y = -164.5
    [[NOTE 10]]
        text = 10.1.103.0/29
        x = -136.0
        y = 22.5
    [[NOTE 11]]
        text = fa0/0\n.2
        x = -142.0
        y = 214.5
    [[NOTE 12]]
        text = 4
        x = -309.0
        y = 218.5
    [[NOTE 13]]
        text = Lo1: 10.1.1.1/24
        x = -539.0
        y = -9.5
    [[NOTE 14]]
        text = s0/2\nDCE\n.1
        x = 178.0
        y = 41.5
    [[NOTE 15]]
        text = 10.1.102.0/29
        x = -327.0
        y = -169.5
    [[NOTE 16]]
        text = s0/0\nDCE\n.1
        x = -332.0
        y = -98.5
    [[NOTE 17]]
        text = s0/1\n.3
        x = 161.0
        y = -82.5
    [[NOTE 18]]
        text = International Travel Agency
        x = -509.0
        y = -295.5
        font = "Sans Serif,12,-1,5,75,0,0,0,0,0"
    [[NOTE 19]]
        text = s0/1\nDCE\n.2
        x = 0.0
        y = -274.5
    [[NOTE 20]]
        text = BGP AS 65001\nEIGRP AS 65001
        x = 151.0
        y = -313.5
        font = "Sans Serif,12,-1,5,75,0,0,0,0,0"
    [[NOTE 21]]
        text = s0/1\n.1
        x = -294.0
        y = -18.5
    [[NOTE 22]]
        text = s0/0\n.2
        x = -149.0
        y = -270.5
    [[NOTE 23]]
        text = 192.168.34.0/30
        x = 73.0
        y = 133.5
    [[NOTE 24]]
        text = s0/0\n.2
        x = -18.0
        y = 178.5
    [[SHAPE 1]]
        type = ellipse
        x = -120.0
        y = -318.0
        width = 33.0
        height = 26.0
        border_style = 2
        z = -2.0
    [[SHAPE 2]]
        type = ellipse
        x = 241.0
        y = -5.0
        width = 33.0
        height = 26.0
        border_style = 2
        z = -2.0
    [[SHAPE 3]]
        type = ellipse
        x = -408.0
        y = -9.0
        width = 33.0
        height = 26.0
        border_style = 2
        z = -2.0
    [[SHAPE 4]]
        type = ellipse
        x = -72.0
        y = 225.0
        width = 33.0
        height = 26.0
        border_style = 2
        z = -2.0
    [[SHAPE 5]]
        type = rectangle
        x = -553.0
        y = -434.0
        width = 980.0
        height = 534.0
        border_color = "#0587b6"
        z = -2.0
    [[SHAPE 6]]
        type = rectangle
        x = -553.0
        y = 108.0
        width = 980.0
        height = 260.0
        border_color = "#42d121"
        z = -2.0
