autostart = False
version = 0.8.3
[127.0.0.1:7200]
    workingdir = C:\Users\ActionMystique\Documents\Missions\GNS3\Temp
    udp = 10000
    [[3640]]
        image = C:\Users\ActionMystique\Documents\Missions\IOS\Binaries\c3640-jk9o3s-mz.124-16a.bin
        idlepc = 0x604d1c74
        sparsemem = True
        ghostios = True
        chassis = 3640
    [[ROUTER Thomas]]
        model = 3640
        console = 2005
        aux = 2100
        cnfg = configs\Thomas.cfg
        slot0 = NM-1FE-TX
        f0/0 = Oliver f2/0
        x = -335.0
        y = -141.0
        z = 1.0
    [[ROUTER Oliver]]
        model = 3640
        console = 2001
        aux = 2101
        cnfg = configs\Oliver.cfg
        slot0 = NM-1FE-TX
        f0/0 = Jack f0/0
        slot1 = NM-1FE-TX
        f1/0 = Harry f0/0
        slot2 = NM-1FE-TX
        f2/0 = Thomas f0/0
        slot3 = NM-1FE-TX
        f3/0 = Alfie f0/0
        x = -151.0
        y = -44.0
        z = 1.0
    [[ROUTER Charlie]]
        model = 3640
        console = 2004
        aux = 2102
        cnfg = configs\Charlie.cfg
        slot0 = NM-1FE-TX
        f0/0 = Harry f1/0
        x = -152.242640687
        y = 187.038059223
        z = 1.0
    [[ROUTER Jack]]
        model = 3640
        console = 2000
        aux = 2103
        cnfg = configs\Jack.cfg
        slot0 = NM-1FE-TX
        f0/0 = Oliver f0/0
        x = -153.707106781
        y = -206.443650814
        z = 1.0
    [[ROUTER Harry]]
        model = 3640
        console = 2002
        aux = 2104
        cnfg = configs\Harry.cfg
        slot0 = NM-1FE-TX
        f0/0 = Oliver f1/0
        slot1 = NM-1FE-TX
        f1/0 = Charlie f0/0
        x = -152.828427125
        y = 64.4730880654
        z = 1.0
    [[ROUTER Alfie]]
        model = 3640
        console = 2006
        aux = 2105
        cnfg = configs\Alfie.cfg
        slot0 = NM-1FE-TX
        f0/0 = Oliver f3/0
        x = 51.5857864376
        y = -140.615223689
        z = 1.0
[GNS3-DATA]
    configs = configs
    m11 = 1.41421356237
    m22 = 1.41421356237
    [[NOTE 1]]
        text = "192.168.56.0 /24"
        x = -186.485281374
        y = 138.422835534
        color = "#0000ff"
    [[NOTE 2]]
        text = ".2"
        x = -108.80046917
        y = -62.9497474683
        color = "#0000ff"
    [[NOTE 3]]
        text = ".4"
        x = 29.3990616607
        y = -124.523340597
        color = "#0000ff"
    [[NOTE 4]]
        text = ".2"
        x = -140.306565824
        y = -5.22330470336
        color = "#0000ff"
    [[NOTE 5]]
        text = ".2"
        x = -87.587265734
        y = -43.3517677219
        color = "#0000ff"
    [[NOTE 6]]
        text = ".3"
        x = -143.134992949
        y = -163.920310217
        color = "#0000ff"
    [[NOTE 7]]
        text = ".6"
        x = -143.134992949
        y = 166.000612745
        color = "#0000ff"
    [[NOTE 8]]
        text = ".5"
        x = -140.306565824
        y = 43.3660530717
        color = "#0000ff"
    [[NOTE 9]]
        text = ".5"
        x = -142.427886168
        y = 104.683332908
        color = "#0000ff"
    [[NOTE 10]]
        text = "192.168.12.0 /24"
        x = -278.221825407
        y = -84.1213203436
        color = "#0000ff"
    [[NOTE 11]]
        text = ".1"
        x = -269.0
        y = -122.0
        color = "#0000ff"
    [[NOTE 12]]
        text = ".2"
        x = -154.762409947
        y = -61.3345237792
        color = "#0000ff"
    [[NOTE 13]]
        text = "192.168.23.0 /24"
        x = -177.0
        y = -130.0
        color = "#0000ff"
    [[NOTE 14]]
        text = "192.168.24.0 /24"
        x = -72.7781745931
        y = -92.9497474683
        color = "#0000ff"
    [[NOTE 15]]
        text = "192.168.25.0 /24"
        x = -184.585786438
        y = 20.9289321881
        color = "#0000ff"
