Jul 15 18:08:44.808 HYPERVISOR: Release 0.2.16-amd64/Linux (tag 2015060118)
Jul 15 18:08:44.808 HYPERVISOR: Started on IP = 127.0.0.1, TCP port = 42645.
Jul 15 18:08:44.819 HYPERVISOR: exec_cmd: hypervisor version 
Jul 15 18:08:44.823 HYPERVISOR: exec_cmd: hypervisor working_dir /media/actionmystique/SAMSUNG-850-Ext4/Labs/GNS3/CCNP/TBSHOOT/L3-Technologies/IPv6/Routing-Protocols/Redistribution/Jean-Christophe_Manciot/1+/TT 1-solutions-linux/project-files/dynamips 
Jul 15 18:08:44.823 GENERAL: working_dir=/media/actionmystique/SAMSUNG-850-Ext4/Labs/GNS3/CCNP/TBSHOOT/L3-Technologies/IPv6/Routing-Protocols/Redistribution/Jean-Christophe_Manciot/1+/TT 1-solutions-linux/project-files/dynamips
Jul 15 18:08:44.823 HYPERVISOR: exec_cmd: vm create ESW4 4 c3725 
Jul 15 18:08:44.823 VM: VM ESW4 created.
Jul 15 18:08:44.824 HYPERVISOR: exec_cmd: vm set_con_tcp_port ESW4 2009 
Jul 15 18:08:44.824 HYPERVISOR: exec_cmd: c3725 get_mac_addr ESW4 
Jul 15 18:08:44.825 HYPERVISOR: exec_cmd: vm set_ios ESW4 /media/actionmystique/SAMSUNG-850-Ext4/Images/GNS3/IOS/c3725-adventerprisek9-mz.124-15.T10.image 
Jul 15 18:08:44.825 HYPERVISOR: exec_cmd: c3725 set_mac_addr ESW4 c204.68ae.0000 
Jul 15 18:08:44.826 HYPERVISOR: exec_cmd: vm set_nvram ESW4 256 
Jul 15 18:08:44.827 HYPERVISOR: exec_cmd: vm set_disk0 ESW4 1 
Jul 15 18:08:44.827 HYPERVISOR: exec_cmd: vm slot_add_binding ESW4 0 16 WIC-2T 
Jul 15 18:08:44.830 HYPERVISOR: exec_cmd: vm get_status ESW4 
Jul 15 18:08:44.831 HYPERVISOR: exec_cmd: vm slot_add_binding ESW4 1 0 NM-16ESW 
Jul 15 18:08:44.840 HYPERVISOR: exec_cmd: vm get_status ESW4 
Jul 15 18:08:44.841 HYPERVISOR: exec_cmd: vm set_idle_pc ESW4 0x6026b804 
Jul 15 18:08:44.842 HYPERVISOR: exec_cmd: vm set_config ESW4 /configs/ios_base_startup-config.txt 
Jul 15 18:55:46.974 HYPERVISOR: exec_cmd: vm get_status ESW4 
Jul 15 18:55:46.976 HYPERVISOR: exec_cmd: vm extract_config ESW4 
Jul 15 18:55:46.980 HYPERVISOR: exec_cmd: hypervisor stop 
Jul 15 18:55:47.242 HYPERVISOR: Stopped.
Jul 15 18:55:47.242 VM: VM ESW4 destroyed.
Jul 15 18:55:47.242 GENERAL: reset done.
