Jul 18 19:13:44.451 HYPERVISOR: Release 0.2.16-amd64/Linux (tag 2015060118)
Jul 18 19:13:44.451 HYPERVISOR: Started on IP = 127.0.0.1, TCP port = 43201.
Jul 18 19:13:44.468 HYPERVISOR: exec_cmd: hypervisor version 
Jul 18 19:13:44.469 HYPERVISOR: exec_cmd: hypervisor working_dir /media/actionmystique/SAMSUNG-850-Ext4/Labs/GNS3/CCNP/TBSHOOT/L3-Technologies/IPv6/Routing-Protocols/Redistribution/Jean-Christophe_Manciot/1+/TT 1-solutions-linux/project-files/dynamips 
Jul 18 19:13:44.469 GENERAL: working_dir=/media/actionmystique/SAMSUNG-850-Ext4/Labs/GNS3/CCNP/TBSHOOT/L3-Technologies/IPv6/Routing-Protocols/Redistribution/Jean-Christophe_Manciot/1+/TT 1-solutions-linux/project-files/dynamips
Jul 18 19:13:44.470 HYPERVISOR: exec_cmd: vm create ESW1 1 c3725 
Jul 18 19:13:44.470 VM: VM ESW1 created.
Jul 18 19:13:44.471 HYPERVISOR: exec_cmd: vm set_con_tcp_port ESW1 2004 
Jul 18 19:13:44.471 HYPERVISOR: exec_cmd: c3725 get_mac_addr ESW1 
Jul 18 19:13:44.471 HYPERVISOR: exec_cmd: c3725 set_mac_addr ESW1 c201.1b91.0000 
Jul 18 19:13:44.472 HYPERVISOR: exec_cmd: vm slot_add_binding ESW1 0 16 WIC-2T 
Jul 18 19:13:44.473 HYPERVISOR: exec_cmd: vm get_status ESW1 
Jul 18 19:13:44.475 HYPERVISOR: exec_cmd: vm set_idle_pc ESW1 0x6026b804 
Jul 18 19:13:44.477 HYPERVISOR: exec_cmd: vm get_status ESW1 
Jul 18 19:13:44.480 HYPERVISOR: exec_cmd: vm slot_add_binding ESW1 1 0 NM-16ESW 
Jul 18 19:13:44.484 HYPERVISOR: exec_cmd: vm set_nvram ESW1 256 
Jul 18 19:13:44.486 HYPERVISOR: exec_cmd: vm set_ios ESW1 /media/actionmystique/SAMSUNG-850-Ext4/Images/GNS3/IOS/c3725-adventerprisek9-mz.124-15.T10.image 
Jul 18 19:13:44.488 HYPERVISOR: exec_cmd: vm set_disk0 ESW1 1 
Jul 18 19:13:44.489 HYPERVISOR: exec_cmd: vm set_config ESW1 configs/ios_base_startup-config.txt 
Jul 18 19:13:44.490 HYPERVISOR: exec_cmd: vm set_config ESW1 configs/ios_base_startup-config.txt configs/ios_base_private-config.txt 
Jul 18 19:13:44.774 HYPERVISOR: exec_cmd: nio create_udp udp-e64ad13c-efbe-4cc8-911b-b36177278298 15006 127.0.0.1 15003 
Jul 18 19:13:44.776 HYPERVISOR: exec_cmd: vm slot_add_nio_binding ESW1 1 1 udp-e64ad13c-efbe-4cc8-911b-b36177278298 
Jul 18 19:13:44.776 HYPERVISOR: exec_cmd: vm get_status ESW1 
Jul 18 19:13:44.782 HYPERVISOR: exec_cmd: nio create_udp udp-0ae59f6c-7e5d-482d-8698-99a5651dae1f 15004 127.0.0.1 15007 
Jul 18 19:13:44.783 HYPERVISOR: exec_cmd: vm slot_add_nio_binding ESW1 1 0 udp-0ae59f6c-7e5d-482d-8698-99a5651dae1f 
Jul 18 19:13:44.784 HYPERVISOR: exec_cmd: vm get_status ESW1 
Jul 18 19:13:49.424 HYPERVISOR: exec_cmd: vm get_status ESW1 
Jul 18 19:13:49.425 HYPERVISOR: exec_cmd: vm extract_config ESW1 
Jul 18 19:13:49.440 HYPERVISOR: exec_cmd: vm delete ESW1 
Jul 18 19:13:49.440 VM: VM ESW1 destroyed.
Jul 18 19:13:49.442 HYPERVISOR: exec_cmd: hypervisor stop 
Jul 18 19:13:49.467 HYPERVISOR: Stopped.
Jul 18 19:13:49.467 GENERAL: reset done.
