autostart = False
version = 0.8.3.1
[127.0.0.1:7202]
    workingdir = working
    udp = 11200
    [[3725]]
        image = C:\Users\ActionMystique\Google Drive\Missions\Certifications\Cisco\IOS\Binaries\c3725-adventerprisek9-mz.124-15.T5.image
        ram = 128
        idlepc = 0x6148b594
        sparsemem = True
        ghostios = True
    [[ROUTER SW14]]
        model = 3725
        console = 2017
        aux = 2517
        cnfg = configs\SW14.cfg
        slot1 = NM-16ESW
        f1/0 = IP_Phone_2141 f1/0
        f1/2 = SW2 f1/14
        f1/3 = SW3 f1/14
        f1/4 = SW4 f1/14
        f1/7 = NIO_udp:30006:127.0.0.1:20006
        f1/8 = NIO_udp:30007:127.0.0.1:20007
        symbol = EtherSwitch router
        x = 309.805987585
        y = 229.557890885
        z = 1.0
[127.0.0.1:7200]
    workingdir = working
    udp = 11000
    [[3725]]
        image = C:\Users\ActionMystique\Google Drive\Missions\Certifications\Cisco\IOS\Binaries\c3725-adventerprisek9-mz.124-15.T5.image
        ram = 128
        idlepc = 0x6148b594
        sparsemem = True
        ghostios = True
    [[ROUTER SW1]]
        model = 3725
        console = 2001
        aux = 2501
        cnfg = configs\SW1.cfg
        slot1 = NM-16ESW
        f1/2 = SW2 f1/2
        f1/3 = SW3 f1/3
        f1/4 = SW4 f1/4
        f1/5 = SW5 f1/5
        f1/11 = SW11 f1/1
        f1/12 = SW12 f1/1
        f1/15 = SW15 f1/1
        symbol = EtherSwitch router
        x = -244.916995695
        y = -165.749317862
        z = 1.0
        hx = -38.1966608845
        hy = 12.2461175832
    [[ROUTER SW3]]
        model = 3725
        console = 2003
        aux = 2503
        cnfg = configs\SW3.cfg
        slot1 = NM-16ESW
        f1/2 = SW2 f1/3
        f1/3 = SW1 f1/3
        f1/4 = SW4 f1/3
        f1/5 = SW5 f1/3
        f1/13 = SW13 f1/3
        f1/14 = SW14 f1/3
        f1/15 = SW15 f1/3
        symbol = EtherSwitch router
        x = 156.470434176
        y = 148.665063159
        z = 1.0
        hx = 48.6169980164
        hy = 7.10658527374
    [[ROUTER SW2]]
        model = 3725
        console = 2002
        aux = 2502
        cnfg = configs\SW2.cfg
        slot1 = NM-16ESW
        f1/2 = SW1 f1/2
        f1/3 = SW3 f1/2
        f1/4 = SW4 f1/2
        f1/5 = SW5 f1/2
        f1/11 = SW11 f1/2
        f1/14 = SW14 f1/2
        f1/15 = SW15 f1/2
        symbol = EtherSwitch router
        x = 46.477680677
        y = -163.678788014
        z = 1.0
        hx = 48.5595291281
        hy = 13.2307827602
    [[ROUTER SW4]]
        model = 3725
        console = 2004
        aux = 2504
        cnfg = configs\SW4.cfg
        slot1 = NM-16ESW
        f1/2 = SW2 f1/4
        f1/3 = SW3 f1/4
        f1/4 = SW1 f1/4
        f1/5 = SW5 f1/4
        f1/12 = SW12 f1/4
        f1/13 = SW13 f1/4
        f1/14 = SW14 f1/4
        symbol = EtherSwitch router
        x = -87.7025174679
        y = 251.116350588
        z = 1.0
        hx = 42.1131274807
        hy = -18.8014069503
[127.0.0.1:7201]
    workingdir = working
    udp = 11100
    [[3725]]
        image = C:\Users\ActionMystique\Google Drive\Missions\Certifications\Cisco\IOS\Binaries\c3725-adventerprisek9-mz.124-15.T5.image
        ram = 128
        idlepc = 0x6148b594
        sparsemem = True
        ghostios = True
    [[ROUTER SW13]]
        model = 3725
        console = 2015
        aux = 2515
        cnfg = configs\SW13.cfg
        slot1 = NM-16ESW
        f1/0 = IP_Phone_5131 f1/0
        f1/3 = SW3 f1/13
        f1/4 = SW4 f1/13
        f1/5 = SW5 f1/13
        f1/6 = NIO_udp:30005:127.0.0.1:20005
        f1/15 = NIO_udp:30004:127.0.0.1:20004
        symbol = EtherSwitch router
        x = -88.0476572722
        y = 408.304500573
        z = 1.0
        hx = 0.761550144741
        hy = -44.0268237697
    [[ROUTER SW12]]
        model = 3725
        console = 2006
        aux = 2506
        cnfg = configs\SW12.cfg
        slot1 = NM-16ESW
        f1/0 = IP_Phone_5122 f1/0
        f1/1 = SW1 f1/12
        f1/3 = NIO_udp:30002:127.0.0.1:20002
        f1/4 = SW4 f1/12
        f1/5 = SW5 f1/12
        f1/14 = NIO_udp:30003:127.0.0.1:20003
        symbol = EtherSwitch router
        x = -469.43503268
        y = 227.85478514
        z = 1.0
        hx = -11.5499240592
        hy = -25.0
    [[ROUTER SW5]]
        model = 3725
        console = 2007
        aux = 2507
        cnfg = configs\SW5.cfg
        slot1 = NM-16ESW
        f1/2 = SW2 f1/5
        f1/3 = SW3 f1/5
        f1/4 = SW4 f1/5
        f1/5 = SW1 f1/5
        f1/11 = SW11 f1/5
        f1/12 = SW12 f1/5
        f1/13 = SW13 f1/5
        symbol = EtherSwitch router
        x = -340.422084907
        y = 144.538277786
        z = 1.0
        hx = -17.6406358932
        hy = -21.6368877534
[127.0.0.1:7206]
    workingdir = working
    udp = 11600
    [[2691]]
        image = C:\Users\ActionMystique\Google Drive\Missions\Certifications\Cisco\IOS\Binaries\c2691-adventerprisek9-mz.124-15.T7.bin
        idlepc = 0x6154c5a4
        sparsemem = True
        ghostios = True
    [[ROUTER IP_Phone_5122]]
        model = 2691
        console = 2059
        aux = 2560
        cnfg = configs\IP_Phone_5122.cfg
        slot1 = NM-1FE-TX
        f1/0 = SW12 f1/0
        symbol = ip_phone
        x = -579.07395984
        y = 318.30696048
        z = 1.0
    [[ROUTER IP_Phone_5131]]
        model = 2691
        console = 2060
        aux = 2561
        cnfg = configs\IP_Phone_5131.cfg
        slot1 = NM-1FE-TX
        f1/0 = SW13 f1/0
        symbol = ip_phone
        x = -78.6302995825
        y = 490.1926956
        z = 1.0
[127.0.0.1:7207]
    workingdir = working
    udp = 11700
    [[3725]]
        image = C:\Users\ActionMystique\Google Drive\Missions\Certifications\Cisco\IOS\Binaries\c3725-adventerprisek9-mz.124-15.T5.image
        ram = 128
        idlepc = 0x6148b594
        sparsemem = True
        ghostios = True
    [[ROUTER SW15]]
        model = 3725
        console = 2063
        aux = 2563
        cnfg = configs\SW15.cfg
        slot1 = NM-16ESW
        f1/0 = IP_Phone_3152 f1/0
        f1/1 = SW1 f1/15
        f1/2 = SW2 f1/15
        f1/3 = SW3 f1/15
        f1/4 = IP_Phone_3151 f1/0
        f1/9 = NIO_udp:30008:127.0.0.1:20008
        symbol = EtherSwitch router
        x = 173.292149122
        y = -283.104993509
        z = 1.0
[127.0.0.1:7205]
    workingdir = working
    udp = 11500
    [[2691]]
        image = C:\Users\ActionMystique\Google Drive\Missions\Certifications\Cisco\IOS\Binaries\c2691-adventerprisek9-mz.124-15.T7.bin
        idlepc = 0x6154c5a4
        sparsemem = True
        ghostios = True
    [[ROUTER IP_Phone_2112]]
        model = 2691
        console = 2053
        aux = 2553
        cnfg = configs\IP_Phone_2112.cfg
        slot1 = NM-1FE-TX
        f1/0 = SW11 f1/3
        symbol = ip_phone
        x = -437.977730887
        y = -384.288101904
        z = 1.0
    [[ROUTER IP_Phone_3151]]
        model = 2691
        console = 2057
        aux = 2557
        cnfg = configs\IP_Phone_3151.cfg
        slot1 = NM-1FE-TX
        f1/0 = SW15 f1/4
        symbol = ip_phone
        x = 330.327785965
        y = -236.462876331
        z = 1.0
    [[ROUTER IP_Phone_2141]]
        model = 2691
        console = 2058
        aux = 2558
        cnfg = configs\IP_Phone_2141.cfg
        slot1 = NM-1FE-TX
        f1/0 = SW14 f1/0
        symbol = ip_phone
        x = 424.435867808
        y = 315.141314336
        z = 1.0
    [[ROUTER IP_Phone_3152]]
        model = 2691
        console = 2056
        aux = 2556
        cnfg = configs\IP_Phone_3152.cfg
        slot1 = NM-1FE-TX
        f1/0 = SW15 f1/0
        symbol = ip_phone
        x = 177.674550309
        y = -355.923421436
        z = 1.0
[127.0.0.1:7208]
    workingdir = working
    udp = 11800
    [[3725]]
        image = C:\Users\ActionMystique\Google Drive\Missions\Certifications\Cisco\IOS\Binaries\c3725-adventerprisek9-mz.124-15.T5.image
        ram = 128
        idlepc = 0x6148b594
        sparsemem = True
        ghostios = True
    [[ROUTER SW11]]
        model = 3725
        console = 2023
        aux = 2523
        cnfg = configs\SW11.cfg
        slot1 = NM-16ESW
        f1/1 = SW1 f1/11
        f1/2 = SW2 f1/11
        f1/3 = IP_Phone_2112 f1/0
        f1/5 = SW5 f1/11
        f1/11 = NIO_udp:30000:127.0.0.1:20000
        f1/12 = NIO_udp:30001:127.0.0.1:20001
        symbol = EtherSwitch router
        x = -337.939556677
        y = -281.196444946
        z = 1.0
[GNS3-DATA]
    configs = configs
    workdir = working
    m11 = 0.631782552131
    m22 = 0.631782552131
    [[NOTE 1]]
        text = "Primary RB VLAN 1\nSecondary RB VLAN 2"
        x = -282.613317166
        y = -205.20382273
    [[NOTE 2]]
        text = "2.254"
        x = -447.556892766
        y = -246.252611517
    [[NOTE 3]]
        text = "QOS"
        x = -93.171429043
        y = -493.344704667
        font = "MS Shell Dlg 2,20,-1,5,75,0,1,0,0,0"
    [[NOTE 4]]
        text = "192.168.0.0/16"
        x = -112.446724169
        y = 47.2853957821
    [[NOTE 5]]
        text = "VPCS[1]"
        x = -349.069931943
        y = -394.881178444
    [[NOTE 6]]
        text = "VTP mode client"
        x = -103.075676626
        y = -299.398547845
    [[NOTE 7]]
        text = "4.131/24"
        x = -163.137960637
        y = 512.916954681
    [[NOTE 8]]
        text = "4.121/24"
        x = -572.251661759
        y = 240.7955705
    [[NOTE 9]]
        text = "VPCS[8]"
        x = 399.584525793
        y = 213.941493825
    [[NOTE 10]]
        text = "2.111/24"
        x = -454.556892766
        y = -260.252611517
    [[NOTE 11]]
        text = "VPCS[5]"
        x = 7.5077753353
        y = 485.124353287
    [[NOTE 12]]
        text = "C:\Users\ActionMystique\AppData\Roaming\VPCS\Core-Access.cfg"
        x = 252.016279616
        y = 411.544778933
    [[NOTE 13]]
        text = "Version 2"
        x = 486.927891419
        y = 33.6573153422
    [[NOTE 14]]
        text = "Access"
        x = -98.3974737539
        y = -338.225409006
        font = "MS Shell Dlg 2,20,-1,5,75,0,1,0,0,0"
    [[NOTE 15]]
        text = "2.151/24"
        x = 280.968573213
        y = -297.136088925
    [[NOTE 16]]
        text = "VPCS[6]"
        x = -165.137960637
        y = 488.916954681
    [[NOTE 17]]
        text = "VPCS[7]"
        x = 315.664929862
        y = 338.6295815
    [[NOTE 18]]
        text = "Primary RB VLAN 4\nSecondary RB VLAN 5"
        x = -134.83814465
        y = 294.969276503
    [[NOTE 19]]
        text = "4.254"
        x = -566.251661759
        y = 253.7955705
    [[NOTE 20]]
        text = "3.254"
        x = 15.5077753353
        y = 522.124353287
    [[NOTE 21]]
        text = "Server Name: Server_VLAN#|SW#|host#\nVPCS Instance#\nIP Address\nGW Virtual IP Address"
        x = 251.625944706
        y = 430.388206442
    [[NOTE 22]]
        text = "3.131/24"
        x = 8.5077753353
        y = 509.124353287
    [[NOTE 23]]
        text = "2.254"
        x = 288.849348284
        y = -283.016863997
    [[NOTE 24]]
        text = "4.141/24"
        x = 403.567509657
        y = 252.685555699
    [[NOTE 25]]
        text = "Primary RB VLAN 5\nSecondary RB VLAN 1"
        x = -379.900198631
        y = 193.006730694
    [[NOTE 26]]
        text = "PortFast, BPDU Guard (downstream), \nUplinkFast (upstream) on all access switches\nBackbone Fast on all Core Switches"
        x = 488.346954355
        y = -79.958072574
    [[NOTE 27]]
        text = "Primary RB VLAN 3\nSecondary RB VLAN 4"
        x = 113.809009664
        y = 195.60976291
    [[NOTE 28]]
        text = "Voice VLAN"
        x = 375.807798414
        y = -133.182564845
        font = "MS Shell Dlg 2,16,-1,5,75,0,1,0,0,0"
    [[NOTE 29]]
        text = "All IP phones in same VLAN"
        x = 513.002849669
        y = -125.50821727
    [[NOTE 30]]
        text = "VPCS"
        x = 161.698373919
        y = 424.580545169
        font = "MS Shell Dlg 2,16,-1,5,75,0,1,0,0,0"
    [[NOTE 31]]
        text = "VPCS[9]"
        x = 270.657099009
        y = -321.539964286
    [[NOTE 32]]
        text = "Native VLAN: 99"
        x = 489.269963386
        y = -34.841063666
    [[NOTE 33]]
        text = "4.254"
        x = 412.567509657
        y = 266.566330771
    [[NOTE 34]]
        text = "Domain Core-Access"
        x = 485.883822152
        y = 5.65731534218
    [[NOTE 35]]
        text = "VPCS[3]"
        x = -461.807944194
        y = 343.568187926
    [[NOTE 36]]
        text = "Password Core-Access"
        x = 485.883822152
        y = 18.8965998542
    [[NOTE 37]]
        text = "4.254"
        x = -156.137960637
        y = 527.916954681
    [[NOTE 38]]
        text = "3.141/24"
        x = 321.051316953
        y = 368.419371819
    [[NOTE 39]]
        text = "Primary RB VLAN 2\nSecondary RB VLAN 3"
        x = 5.69132676722
        y = -202.645520479
    [[NOTE 40]]
        text = "Core: mode server"
        x = 488.265073752
        y = 68.857051249
    [[NOTE 41]]
        text = "All simulated IP phones on switches access ports\nTrust COS for all VOIP Phones\nTrust DSCP for all Servers"
        x = -201.241035743
        y = -438.76444816
    [[NOTE 42]]
        text = "VTP"
        x = 414.292097192
        y = 34.0829191787
        font = "MS Shell Dlg 2,16,-1,5,75,0,1,0,0,0"
    [[NOTE 43]]
        text = "5.254"
        x = -339.280141625
        y = -355.881178444
    [[NOTE 44]]
        text = "VPCS[2]"
        x = -456.230108266
        y = -286.252611517
    [[NOTE 45]]
        text = "PVST+"
        x = 397.503723277
        y = -69.724821307
        font = "MS Shell Dlg 2,16,-1,5,75,0,1,0,0,0"
    [[NOTE 46]]
        text = "5.111/24"
        x = -345.280141625
        y = -369.881178444
    [[NOTE 47]]
        text = "5.254"
        x = -456.386202489
        y = 383.989929631
    [[NOTE 48]]
        text = "5.121/24"
        x = -464.807944194
        y = 371.568187926
    [[NOTE 49]]
        text = "Pruning"
        x = 488.066529548
        y = 48.6573153422
    [[NOTE 50]]
        text = "VPCS[4]"
        x = -574.251661759
        y = 215.7955705
    [[NOTE 51]]
        text = "Acesss: mode client"
        x = 488.265073752
        y = 83.553024006
    [[NOTE 52]]
        text = "Core"
        x = -94.622464492
        y = 10.6741110654
        font = "MS Shell Dlg 2,20,-1,5,75,0,1,0,0,0"
    [[NOTE 53]]
        text = "3.254"
        x = 327.051316953
        y = 382.419371819
    [[Cloud Server_2111]]
        symbol = server
        x = -454.056892766
        y = -310.752611517
        z = 1.0
        connections = SW11:f1/12:NIO_udp:30001:127.0.0.1:20001
    [[Cloud Server_3131]]
        symbol = server
        x = 6.0077753353
        y = 457.624353287
        z = 1.0
        connections = SW13:f1/15:NIO_udp:30004:127.0.0.1:20004
    [[Cloud Server_2151]]
        symbol = server
        x = 282.002204664
        y = -360.790578578
        z = 1.0
        connections = SW15:f1/9:NIO_udp:30008:127.0.0.1:20008
    [[Cloud Server_5111]]
        symbol = server
        x = -344.780141625
        y = -419.381178444
        z = 1.0
        connections = SW11:f1/11:NIO_udp:30000:127.0.0.1:20000
    [[Cloud Server_4131]]
        symbol = server
        x = -167.637960637
        y = 461.416954681
        z = 1.0
        connections = SW13:f1/6:NIO_udp:30005:127.0.0.1:20005
    [[Cloud Server_4141]]
        symbol = server
        x = 403.186734585
        y = 189.350981205
        z = 1.0
        connections = SW14:f1/8:NIO_udp:30007:127.0.0.1:20007
    [[Cloud Server_3141]]
        symbol = server
        x = 320.551316953
        y = 318.919371819
        z = 1.0
        connections = SW14:f1/7:NIO_udp:30006:127.0.0.1:20006
    [[Cloud Server_4121]]
        symbol = server
        x = -575.751661759
        y = 189.2955705
        z = 1.0
        connections = SW12:f1/14:NIO_udp:30003:127.0.0.1:20003
    [[Cloud Server_5121]]
        symbol = server
        x = -465.307944194
        y = 315.068187926
        z = 1.0
        connections = SW12:f1/3:NIO_udp:30002:127.0.0.1:20002
    [[SHAPE 1]]
        type = ellipse
        x = -387.966173367
        y = -194.868854203
        width = 643.067218869
        height = 496.029810698
        fill_color = "#00ffff"
        border_color = "#00ffff"
        border_style = 2
        z = -1.0
    [[SHAPE 2]]
        type = ellipse
        x = -509.171091163
        y = -337.556322275
        width = 916.224303319
        height = 774.393915808
        fill_color = "#ffff7f"
        border_style = 2
        z = -2.0
