Aug 17 09:46:52.761 HYPERVISOR: Release 0.2.16-amd64/Linux (tag 2015060118)
Aug 17 09:46:52.761 HYPERVISOR: Started on IP = 127.0.0.1, TCP port = 60007.
Aug 17 09:46:52.769 HYPERVISOR: exec_cmd: hypervisor version 
Aug 17 09:46:52.770 HYPERVISOR: exec_cmd: hypervisor working_dir /media/actionmystique/SAMSUNG-850-Ext4/Labs/GNS3/CCNP/TBSHOOT/Infrastructure-Services/DHCP-NAT/Jean-Christophe_Manciot/1+/DHCPv6/TT 1-solutions-linux/project-files/dynamips 
Aug 17 09:46:52.770 GENERAL: working_dir=/media/actionmystique/SAMSUNG-850-Ext4/Labs/GNS3/CCNP/TBSHOOT/Infrastructure-Services/DHCP-NAT/Jean-Christophe_Manciot/1+/DHCPv6/TT 1-solutions-linux/project-files/dynamips
Aug 17 09:46:52.770 HYPERVISOR: exec_cmd: vm create ESW1 1 c3725 
Aug 17 09:46:52.770 VM: VM ESW1 created.
Aug 17 09:46:52.770 HYPERVISOR: exec_cmd: vm set_con_tcp_port ESW1 2001 
Aug 17 09:46:52.771 HYPERVISOR: exec_cmd: vm set_aux_tcp_port ESW1 2501 
Aug 17 09:46:52.771 HYPERVISOR: exec_cmd: c3725 get_mac_addr ESW1 
Aug 17 09:46:52.771 HYPERVISOR: exec_cmd: vm set_nvram ESW1 256 
Aug 17 09:46:52.772 HYPERVISOR: exec_cmd: vm set_ios ESW1 /media/actionmystique/SAMSUNG-850-Ext4/Images/GNS3/IOS/c3725-adventerprisek9-mz.124-15.T10.image 
Aug 17 09:46:52.772 HYPERVISOR: exec_cmd: vm get_status ESW1 
Aug 17 09:46:52.772 HYPERVISOR: exec_cmd: vm set_idle_pc ESW1 0x60c06d20 
Aug 17 09:46:52.773 HYPERVISOR: exec_cmd: vm slot_add_binding ESW1 0 16 WIC-2T 
Aug 17 09:46:52.773 HYPERVISOR: exec_cmd: vm get_status ESW1 
Aug 17 09:46:52.773 HYPERVISOR: exec_cmd: vm slot_add_binding ESW1 1 0 NM-16ESW 
Aug 17 09:46:52.774 HYPERVISOR: exec_cmd: c3725 set_mac_addr ESW1 c201.281a.0000 
Aug 17 09:46:52.774 HYPERVISOR: exec_cmd: vm set_disk0 ESW1 1 
Aug 17 09:46:52.775 HYPERVISOR: exec_cmd: vm set_config ESW1 configs/i1_startup-config.cfg 
Aug 17 09:46:52.775 HYPERVISOR: exec_cmd: vm set_config ESW1 configs/i1_startup-config.cfg configs/i1_private-config.cfg 
Aug 17 09:46:52.916 HYPERVISOR: exec_cmd: nio create_udp udp-411f18fc-3ef4-4d70-93ef-890cdd7b45b0 15005 127.0.0.1 15006 
Aug 17 09:46:52.916 HYPERVISOR: exec_cmd: vm slot_add_nio_binding ESW1 1 1 udp-411f18fc-3ef4-4d70-93ef-890cdd7b45b0 
Aug 17 09:46:52.917 HYPERVISOR: exec_cmd: vm get_status ESW1 
Aug 17 09:46:52.923 HYPERVISOR: exec_cmd: nio create_udp udp-aba2ab5f-6006-4106-982d-5c99b880451b 15003 127.0.0.1 15007 
Aug 17 09:46:52.929 HYPERVISOR: exec_cmd: vm slot_add_nio_binding ESW1 1 2 udp-aba2ab5f-6006-4106-982d-5c99b880451b 
Aug 17 09:46:52.930 HYPERVISOR: exec_cmd: vm get_status ESW1 
Aug 17 09:46:52.940 HYPERVISOR: exec_cmd: nio create_udp udp-24e8f43f-26ce-4442-9309-be1fe156850d 15008 127.0.0.1 15009 
Aug 17 09:46:52.940 HYPERVISOR: exec_cmd: vm slot_add_nio_binding ESW1 1 0 udp-24e8f43f-26ce-4442-9309-be1fe156850d 
Aug 17 09:46:52.941 HYPERVISOR: exec_cmd: vm get_status ESW1 
Aug 17 09:46:52.964 HYPERVISOR: exec_cmd: nio create_udp udp-2f191bc3-2e01-454a-9c4a-17dcf1341d9f 15011 127.0.0.1 15010 
Aug 17 09:46:52.964 HYPERVISOR: exec_cmd: vm slot_add_nio_binding ESW1 1 3 udp-2f191bc3-2e01-454a-9c4a-17dcf1341d9f 
Aug 17 09:46:52.965 HYPERVISOR: exec_cmd: vm get_status ESW1 
Aug 17 09:46:54.840 HYPERVISOR: exec_cmd: vm create Ghost 0 c3725 
Aug 17 09:46:54.840 VM: VM Ghost created.
Aug 17 09:46:54.862 HYPERVISOR: exec_cmd: vm set_ios Ghost /media/actionmystique/SAMSUNG-850-Ext4/Images/GNS3/IOS/c3725-adventerprisek9-mz.124-15.T10.image 
Aug 17 09:46:54.864 HYPERVISOR: exec_cmd: vm set_ghost_status Ghost 1 
Aug 17 09:46:54.870 HYPERVISOR: exec_cmd: vm set_ghost_file Ghost c3725-adventerprisek9-mz.124-15.T10.image-128.ghost 
Aug 17 09:46:54.880 HYPERVISOR: exec_cmd: vm get_status Ghost 
Aug 17 09:46:54.898 HYPERVISOR: exec_cmd: vm start Ghost 
Aug 17 09:46:55.321 HYPERVISOR: exec_cmd: vm get_status Ghost 
Aug 17 09:46:55.322 HYPERVISOR: exec_cmd: vm stop Ghost 
Aug 17 09:46:55.524 VM: VM Ghost shutdown.
Aug 17 09:46:55.525 HYPERVISOR: exec_cmd: vm clean_delete Ghost 
Aug 17 09:46:55.525 VM: VM Ghost destroyed.
Aug 17 09:46:55.526 HYPERVISOR: exec_cmd: vm set_ghost_status ESW1 2 
Aug 17 09:46:55.527 HYPERVISOR: exec_cmd: vm set_ghost_file ESW1 c3725-adventerprisek9-mz.124-15.T10.image-128.ghost 
Aug 17 09:46:55.527 HYPERVISOR: exec_cmd: vm get_status ESW1 
Aug 17 09:46:55.528 HYPERVISOR: exec_cmd: vm start ESW1 
Aug 17 09:57:39.081 HYPERVISOR: exec_cmd: vm extract_config ESW1 
Aug 17 10:14:16.503 HYPERVISOR: exec_cmd: nio bind_filter udp-2f191bc3-2e01-454a-9c4a-17dcf1341d9f 2 capture 
Aug 17 10:14:16.505 HYPERVISOR: exec_cmd: nio setup_filter udp-2f191bc3-2e01-454a-9c4a-17dcf1341d9f 2 en10mb /media/actionmystique/SAMSUNG-850-Ext4/Labs/GNS3/CCNP/TBSHOOT/Infrastructure-Services/DHCP-NAT/Jean-Christophe_Manciot/1+/DHCPv6/TT 1-solutions-linux/project-files/captures/ESW1_FastEthernet1-3_to_vIOS-2_Ethernet0.pcap 
Aug 17 10:27:20.282 HYPERVISOR: exec_cmd: vm extract_config ESW1 
Aug 17 10:29:20.385 HYPERVISOR: exec_cmd: vm extract_config ESW1 
Aug 17 10:29:22.683 HYPERVISOR: exec_cmd: vm get_status ESW1 
Aug 17 10:29:22.687 HYPERVISOR: exec_cmd: vm stop ESW1 
Aug 17 10:29:22.824 VM: VM ESW1 shutdown.
Aug 17 10:29:22.825 HYPERVISOR: exec_cmd: vm extract_config ESW1 
Aug 17 10:30:06.473 HYPERVISOR: exec_cmd: vm get_status ESW1 
Aug 17 10:30:06.474 HYPERVISOR: exec_cmd: vm extract_config ESW1 
Aug 17 10:30:06.475 HYPERVISOR: exec_cmd: vm delete ESW1 
Aug 17 10:30:06.475 VM: VM ESW1 destroyed.
Aug 17 10:30:06.476 HYPERVISOR: exec_cmd: hypervisor stop 
Aug 17 10:30:06.813 HYPERVISOR: Stopped.
Aug 17 10:30:06.813 GENERAL: reset done.
