Jul 19 16:11:07.713 HYPERVISOR: Release 0.2.16-amd64/Linux (tag 2015060118)
Jul 19 16:11:07.713 HYPERVISOR: Started on IP = 127.0.0.1, TCP port = 52224.
Jul 19 16:11:07.742 HYPERVISOR: exec_cmd: hypervisor version 
Jul 19 16:11:07.743 HYPERVISOR: exec_cmd: hypervisor working_dir /media/actionmystique/SAMSUNG-850-Ext4/Labs/GNS3/CCNP/TBSHOOT/Exam-Topology/Jean-Christophe_Manciot/1+/v2-solutions-linux/project-files/dynamips 
Jul 19 16:11:07.743 GENERAL: working_dir=/media/actionmystique/SAMSUNG-850-Ext4/Labs/GNS3/CCNP/TBSHOOT/Exam-Topology/Jean-Christophe_Manciot/1+/v2-solutions-linux/project-files/dynamips
Jul 19 16:11:07.744 HYPERVISOR: exec_cmd: vm create R5 9 c7200 
Jul 19 16:11:07.745 VM: VM R5 created.
Jul 19 16:11:07.746 HYPERVISOR: exec_cmd: vm set_con_tcp_port R5 2015 
Jul 19 16:11:07.747 HYPERVISOR: exec_cmd: c7200 get_mac_addr R5 
Jul 19 16:11:07.748 HYPERVISOR: exec_cmd: vm get_status R5 
Jul 19 16:11:07.750 HYPERVISOR: exec_cmd: vm slot_add_binding R5 0 0 C7200-IO-FE 
Jul 19 16:11:07.752 HYPERVISOR: exec_cmd: vm get_status R5 
Jul 19 16:11:07.758 HYPERVISOR: exec_cmd: vm slot_remove_binding R5 0 0 
Jul 19 16:11:07.759 HYPERVISOR: exec_cmd: vm get_status R5 
Jul 19 16:11:07.760 HYPERVISOR: exec_cmd: vm slot_add_binding R5 0 0 C7200-IO-GE-E 
Jul 19 16:11:07.761 HYPERVISOR: exec_cmd: c7200 set_mac_addr R5 ca09.71f1.0000 
Jul 19 16:11:07.762 HYPERVISOR: exec_cmd: vm set_disk0 R5 1 
Jul 19 16:11:07.763 HYPERVISOR: exec_cmd: vm get_status R5 
Jul 19 16:11:07.771 HYPERVISOR: exec_cmd: vm slot_add_binding R5 6 0 PA-POS-OC3 
Jul 19 16:11:07.781 HYPERVISOR: exec_cmd: vm set_ram R5 512 
Jul 19 16:11:07.786 HYPERVISOR: exec_cmd: vm get_status R5 
Jul 19 16:11:07.789 HYPERVISOR: exec_cmd: vm slot_add_binding R5 3 0 PA-GE 
Jul 19 16:11:07.791 HYPERVISOR: exec_cmd: vm set_ios R5 /media/actionmystique/SAMSUNG-850-Ext4/Images/GNS3/IOS/c7200-adventerprisek9-mz.152-4.M2.image 
Jul 19 16:11:07.793 HYPERVISOR: exec_cmd: vm get_status R5 
Jul 19 16:11:07.794 HYPERVISOR: exec_cmd: vm slot_add_binding R5 4 0 PA-4T+ 
Jul 19 16:11:07.795 HYPERVISOR: exec_cmd: vm get_status R5 
Jul 19 16:11:07.796 HYPERVISOR: exec_cmd: vm set_idle_pc R5 0x6062f0e0 
Jul 19 16:11:07.797 HYPERVISOR: exec_cmd: vm get_status R5 
Jul 19 16:11:07.798 HYPERVISOR: exec_cmd: vm slot_add_binding R5 1 0 PA-GE 
Jul 19 16:11:07.799 HYPERVISOR: exec_cmd: vm get_status R5 
Jul 19 16:11:07.800 HYPERVISOR: exec_cmd: vm slot_add_binding R5 5 0 PA-POS-OC3 
Jul 19 16:11:07.802 HYPERVISOR: exec_cmd: vm get_status R5 
Jul 19 16:11:07.803 HYPERVISOR: exec_cmd: vm slot_add_binding R5 2 0 PA-GE 
Jul 19 16:11:07.804 HYPERVISOR: exec_cmd: vm set_nvram R5 256 
Jul 19 16:11:07.806 HYPERVISOR: exec_cmd: vm set_config R5 configs/i9_startup-config.cfg 
Jul 19 16:11:07.807 HYPERVISOR: exec_cmd: vm set_config R5 configs/i9_startup-config.cfg configs/i9_private-config.cfg 
Jul 19 16:11:08.768 HYPERVISOR: exec_cmd: nio create_udp udp-a0efc7bf-857b-4d96-a584-a4798ad31fa6 15045 127.0.0.1 15047 
Jul 19 16:11:08.769 HYPERVISOR: exec_cmd: vm slot_add_nio_binding R5 4 0 udp-a0efc7bf-857b-4d96-a584-a4798ad31fa6 
Jul 19 16:11:08.769 HYPERVISOR: exec_cmd: vm get_status R5 
Jul 19 16:11:08.774 HYPERVISOR: exec_cmd: nio create_udp udp-844cee3f-b8c9-4471-9f3a-bd915b6f4a82 15049 127.0.0.1 15048 
Jul 19 16:11:08.775 HYPERVISOR: exec_cmd: vm slot_add_nio_binding R5 2 0 udp-844cee3f-b8c9-4471-9f3a-bd915b6f4a82 
Jul 19 16:11:08.776 HYPERVISOR: exec_cmd: vm get_status R5 
Jul 19 16:11:08.813 HYPERVISOR: exec_cmd: nio create_udp udp-cefee422-741b-4346-8600-13bc6594b358 15050 127.0.0.1 15051 
Jul 19 16:11:08.813 HYPERVISOR: exec_cmd: vm slot_add_nio_binding R5 3 0 udp-cefee422-741b-4346-8600-13bc6594b358 
Jul 19 16:11:08.813 HYPERVISOR: exec_cmd: vm get_status R5 
Jul 19 16:11:08.821 HYPERVISOR: exec_cmd: nio create_udp udp-1272bab6-9c3e-476e-8d49-fbd653930f6e 15052 127.0.0.1 15053 
Jul 19 16:11:08.822 HYPERVISOR: exec_cmd: vm slot_add_nio_binding R5 1 0 udp-1272bab6-9c3e-476e-8d49-fbd653930f6e 
Jul 19 16:11:08.822 HYPERVISOR: exec_cmd: vm get_status R5 
Jul 19 16:16:33.576 HYPERVISOR: exec_cmd: vm get_status R5 
Jul 19 16:16:33.581 HYPERVISOR: exec_cmd: vm extract_config R5 
Jul 19 16:16:33.589 HYPERVISOR: exec_cmd: vm delete R5 
Jul 19 16:16:33.589 VM: VM R5 destroyed.
Jul 19 16:16:33.592 HYPERVISOR: exec_cmd: hypervisor stop 
Jul 19 16:16:34.040 HYPERVISOR: Stopped.
Jul 19 16:16:34.040 GENERAL: reset done.
