Jul 19 16:11:07.605 HYPERVISOR: Release 0.2.16-amd64/Linux (tag 2015060118)
Jul 19 16:11:07.605 HYPERVISOR: Started on IP = 127.0.0.1, TCP port = 60930.
Jul 19 16:11:07.616 HYPERVISOR: exec_cmd: hypervisor version 
Jul 19 16:11:07.617 HYPERVISOR: exec_cmd: hypervisor working_dir /media/actionmystique/SAMSUNG-850-Ext4/Labs/GNS3/CCNP/TBSHOOT/Exam-Topology/Jean-Christophe_Manciot/1+/v2-solutions-linux/project-files/dynamips 
Jul 19 16:11:07.617 GENERAL: working_dir=/media/actionmystique/SAMSUNG-850-Ext4/Labs/GNS3/CCNP/TBSHOOT/Exam-Topology/Jean-Christophe_Manciot/1+/v2-solutions-linux/project-files/dynamips
Jul 19 16:11:07.618 HYPERVISOR: exec_cmd: vm create R2 6 c7200 
Jul 19 16:11:07.618 VM: VM R2 created.
Jul 19 16:11:07.619 HYPERVISOR: exec_cmd: vm set_con_tcp_port R2 2001 
Jul 19 16:11:07.620 HYPERVISOR: exec_cmd: c7200 get_mac_addr R2 
Jul 19 16:11:07.621 HYPERVISOR: exec_cmd: vm get_status R2 
Jul 19 16:11:07.622 HYPERVISOR: exec_cmd: vm slot_add_binding R2 0 0 C7200-IO-FE 
Jul 19 16:11:07.623 HYPERVISOR: exec_cmd: vm get_status R2 
Jul 19 16:11:07.624 HYPERVISOR: exec_cmd: vm slot_remove_binding R2 0 0 
Jul 19 16:11:07.626 HYPERVISOR: exec_cmd: vm get_status R2 
Jul 19 16:11:07.627 HYPERVISOR: exec_cmd: vm slot_add_binding R2 0 0 C7200-IO-GE-E 
Jul 19 16:11:07.630 HYPERVISOR: exec_cmd: c7200 set_mac_addr R2 ca06.2e53.0000 
Jul 19 16:11:07.633 HYPERVISOR: exec_cmd: vm set_disk0 R2 1 
Jul 19 16:11:07.635 HYPERVISOR: exec_cmd: vm get_status R2 
Jul 19 16:11:07.637 HYPERVISOR: exec_cmd: vm slot_add_binding R2 6 0 PA-POS-OC3 
Jul 19 16:11:07.640 HYPERVISOR: exec_cmd: vm set_ram R2 512 
Jul 19 16:11:07.641 HYPERVISOR: exec_cmd: vm get_status R2 
Jul 19 16:11:07.643 HYPERVISOR: exec_cmd: vm slot_add_binding R2 3 0 PA-GE 
Jul 19 16:11:07.644 HYPERVISOR: exec_cmd: vm set_ios R2 /media/actionmystique/SAMSUNG-850-Ext4/Images/GNS3/IOS/c7200-adventerprisek9-mz.152-4.M2.image 
Jul 19 16:11:07.647 HYPERVISOR: exec_cmd: vm get_status R2 
Jul 19 16:11:07.649 HYPERVISOR: exec_cmd: vm slot_add_binding R2 4 0 PA-4T+ 
Jul 19 16:11:07.651 HYPERVISOR: exec_cmd: vm get_status R2 
Jul 19 16:11:07.653 HYPERVISOR: exec_cmd: vm set_idle_pc R2 0x6062f0e0 
Jul 19 16:11:07.655 HYPERVISOR: exec_cmd: vm get_status R2 
Jul 19 16:11:07.657 HYPERVISOR: exec_cmd: vm slot_add_binding R2 1 0 PA-GE 
Jul 19 16:11:07.658 HYPERVISOR: exec_cmd: vm get_status R2 
Jul 19 16:11:07.659 HYPERVISOR: exec_cmd: vm slot_add_binding R2 5 0 PA-POS-OC3 
Jul 19 16:11:07.660 HYPERVISOR: exec_cmd: vm get_status R2 
Jul 19 16:11:07.661 HYPERVISOR: exec_cmd: vm slot_add_binding R2 2 0 PA-GE 
Jul 19 16:11:07.661 HYPERVISOR: exec_cmd: vm set_nvram R2 256 
Jul 19 16:11:07.662 HYPERVISOR: exec_cmd: vm set_config R2 configs/i6_startup-config.cfg 
Jul 19 16:11:07.663 HYPERVISOR: exec_cmd: vm set_config R2 configs/i6_startup-config.cfg configs/i6_private-config.cfg 
Jul 19 16:11:08.569 HYPERVISOR: exec_cmd: nio create_udp udp-14c8fae8-f80c-4fa1-9372-32f2912ca536 15026 127.0.0.1 15028 
Jul 19 16:11:08.570 HYPERVISOR: exec_cmd: vm slot_add_nio_binding R2 4 0 udp-14c8fae8-f80c-4fa1-9372-32f2912ca536 
Jul 19 16:11:08.570 HYPERVISOR: exec_cmd: vm get_status R2 
Jul 19 16:16:33.578 HYPERVISOR: exec_cmd: vm get_status R2 
Jul 19 16:16:33.581 HYPERVISOR: exec_cmd: vm extract_config R2 
Jul 19 16:16:33.590 HYPERVISOR: exec_cmd: vm delete R2 
Jul 19 16:16:33.590 VM: VM R2 destroyed.
Jul 19 16:16:33.592 HYPERVISOR: exec_cmd: hypervisor stop 
Jul 19 16:16:33.895 HYPERVISOR: Stopped.
Jul 19 16:16:33.895 GENERAL: reset done.
